<?xml version="1.0" encoding="UTF-8" standalone="no"?>
<!DOCTYPE svg PUBLIC "-//W3C//DTD SVG 1.1//EN" "http://www.w3.org/Graphics/SVG/1.1/DTD/svg11.dtd">
<svg xmlns="http://www.w3.org/2000/svg">
<metadata/>
<defs>
<font id="oswaldbold" horiz-adv-x="1135">
<font-face units-per-em="2048" ascent="1638" descent="-410"/>
<missing-glyph horiz-adv-x="278"/>
<glyph horiz-adv-x="2048"/>
<glyph horiz-adv-x="2048"/>
<glyph unicode="&#xD;" horiz-adv-x="682"/>
<glyph unicode=" " horiz-adv-x="278"/>
<glyph unicode="&#9;" horiz-adv-x="278"/>
<glyph unicode=" " horiz-adv-x="278"/>
<glyph unicode="!" horiz-adv-x="524" d="M95 0h323v317h-323v-317zM95 1799l104 -1337h116l123 1337h-343z"/>
<glyph unicode="&quot;" horiz-adv-x="758" d="M40 1801l90 -599h203l1 599h-294zM433 1801l1 -599h182l102 599h-285z"/>
<glyph unicode="#" horiz-adv-x="1150" d="M99 616h142l-88 -616h206l89 616h143l-88 -616h206l89 616h226v255h-189l16 114h173v255h-136l81 561h-209l-80 -561h-142l81 561h-209l-80 -561h-231v-255h194l-16 -114h-178v-255zM485 871l16 114h142l-16 -114h-142z"/>
<glyph unicode="$" horiz-adv-x="1145" d="M93 568q0 -100 25 -183.5t76 -151.5t136.5 -110t198.5 -52v-171h96v170q182 9 307 122.5t125 286.5q0 76 -16 140t-40.5 112t-70.5 98.5t-89 87t-114 89.5l-123 93q-75 57 -113.5 108.5t-38.5 123.5q0 52 30 91t91 39q112 0 112 -162q0 -20 -3 -74l372 50l1 46 q0 172 -123.5 289.5t-306.5 126.5v194h-96v-197q-199 -18 -317 -135.5t-118 -311.5q0 -66 17.5 -125t40.5 -101t66 -88.5t74.5 -73.5t84.5 -69l112 -89q9 -7 43.5 -33.5t45 -36t36.5 -32.5t36 -37.5t24 -37t19 -45t5 -47.5q0 -123 -103 -123q-37 0 -64 17t-40.5 40.5 t-21.5 59.5t-10 62.5t-2 59.5v49z"/>
<glyph unicode="%" horiz-adv-x="2041" d="M94 1295q0 -511 385 -511q387 0 387 511v8q-1 117 -21.5 205.5t-65 155.5t-120 101.5t-180.5 34.5q-106 0 -181.5 -34.5t-119.5 -102t-64 -156t-20 -206.5v-6zM360 1295v11q0 59 2 96t8.5 77t19 62t35 36t54.5 14q27 0 47 -8.5t33 -28.5t20.5 -42t11.5 -58.5t5 -68 t1 -81.5v-9q0 -75 -3.5 -121.5t-15 -92.5t-36 -67.5t-63.5 -21.5q-32 0 -54 16t-34.5 40.5t-19.5 66.5t-9 81.5t-2 98.5zM634 0h179l578 1835h-180zM1170 511q0 -511 385 -511q387 0 387 511v9q-1 117 -21.5 205.5t-65 155t-120 101t-180.5 34.5q-106 0 -181 -34.5 t-119 -101.5t-64 -155t-21 -205v-9zM1436 511v6q0 50 1 82.5t5 69t12 59t21 42t33 28.5t47 9t47.5 -9t33 -29t20.5 -42t11.5 -59.5t4.5 -69t1 -82.5v-5q0 -75 -3.5 -121.5t-15 -92.5t-36 -67.5t-63.5 -21.5q-32 0 -54 16t-34.5 40.5t-19.5 66.5t-9 81.5t-2 98.5z"/>
<glyph unicode="&amp;" horiz-adv-x="1194" d="M66 389q0 -182 104 -300.5t286 -118.5q98 0 186 39t153 112q157 -150 274 -150q30 0 60 6v285q-45 4 -88 25.5t-72 54.5q82 120 116 234.5t34 297.5h-276q0 -203 -41 -310l-187 312q133 137 206.5 274.5t73.5 300.5q0 175 -109.5 279t-285.5 104q-171 0 -268.5 -114 t-97.5 -286q0 -173 160 -528q-228 -254 -228 -517zM378 414q0 70 13.5 132.5t32.5 81.5q57 -113 182 -315q-72 -92 -142 -92q-44 0 -65 55.5t-21 137.5zM436 1433q0 150 86 150q52 0 74.5 -44.5t22.5 -102.5q0 -81 -31.5 -170.5t-80.5 -160.5q-71 173 -71 328z"/>
<glyph unicode="'" horiz-adv-x="356" d="M31 1799l70 -598h163l71 598h-304z"/>
<glyph unicode="(" horiz-adv-x="696" d="M156 891q0 -107 1 -168t10 -176t26 -185.5t52.5 -161t85 -141.5t128 -87.5t178.5 -35.5v222q-39 -1 -70 20t-51.5 59.5t-35.5 85.5t-22.5 107t-12.5 114.5t-5.5 117.5t0 106.5t2 90.5t1.5 62t-1.5 62t-2 91t0 107t5.5 117.5t12.5 114.5t22.5 107t35.5 85.5t51.5 59.5 t70 20v222q-78 0 -143.5 -22t-112 -55t-83.5 -92t-60.5 -109.5t-40 -132t-24.5 -136t-12 -145t-4.5 -135t-0.5 -129.5v-30v-30z"/>
<glyph unicode=")" horiz-adv-x="696" d="M110 -64q71 0 131 15.5t105 50t81 71.5t61 97.5t44 109t30 124.5t17.5 125t9 130t3 121t0.5 115v26v26q0 74 -0.5 115t-3 121.5t-9.5 130.5l-17 125q-11 75 -30 124t-44 109t-61 97.5t-81 71.5t-105 50t-131 16v-222q39 1 70 -20t51 -59.5t35.5 -85.5t23 -107.5t12 -115 t5 -117.5t0.5 -106.5t-1.5 -90.5t-1.5 -62t1.5 -62t1.5 -90.5t-0.5 -106t-5 -117.5t-12 -115t-23 -107t-35.5 -85.5t-51 -59.5t-70 -20v-222z"/>
<glyph unicode="*" horiz-adv-x="913" d="M76 1299l244 -94l-162 -231l196 -116l117 235l118 -235l198 116l-165 230l246 94l-74 199l-223 -120l25 265h-250l27 -264l-223 118z"/>
<glyph unicode="+" horiz-adv-x="762" d="M70 583h195v-194h222v194h195v223h-195v194h-222v-194h-195v-223z"/>
<glyph unicode="," horiz-adv-x="469" d="M84 -1h110q0 -31 -1.5 -45t-10.5 -22.5t-18 -9t-36 -0.5h-15l40 -166q159 -24 214 86q39 78 41 278q0 35 -1 109v88h-323v-318z"/>
<glyph unicode="-" horiz-adv-x="429" d="M4 453h417v223h-417v-223z"/>
<glyph unicode="." horiz-adv-x="522" d="M99 0h325v317h-325v-317z"/>
<glyph unicode="/" horiz-adv-x="895" d="M91 0h179l578 1835h-180z"/>
<glyph unicode="0" horiz-adv-x="1147" d="M89 528q0 -116 29.5 -216.5t87.5 -178.5t152.5 -123t215.5 -45q119 0 213 45.5t152.5 123.5t88.5 178.5t30 215.5v741q0 120 -28.5 220t-85.5 178.5t-151.5 122.5t-218.5 44q-125 0 -219.5 -44t-151.5 -122t-85.5 -178.5t-28.5 -220.5v-741zM440 528v741q0 36 1.5 63 t9 66.5t21 65.5t39.5 45t63 19q135 0 135 -259v-741q0 -41 -4.5 -79t-17.5 -82t-42 -70.5t-71 -26.5q-34 0 -59.5 19t-39.5 46.5t-22 65t-10.5 67t-2.5 60.5z"/>
<glyph unicode="1" horiz-adv-x="676" d="M43 1337h182v-1337h344v1801h-266q-22 -45 -54 -77t-58 -46t-73 -36.5t-75 -39.5v-265z"/>
<glyph unicode="2" horiz-adv-x="1074" d="M60 0h958v346h-560q45 60 166 206t181 230q213 298 213 557q0 229 -125 362.5t-353 133.5q-103 0 -184 -27.5t-136 -76.5t-91 -120t-52 -153.5t-16 -181.5v-113h345v24q0 25 -0.5 54.5t2.5 62.5t7 65.5t14 61.5t24 51.5t36.5 35.5t50.5 13q34 0 60.5 -18.5t41.5 -48.5 t22.5 -62t7.5 -63q0 -52 -14.5 -106t-43 -109t-53.5 -94t-63 -94l-438 -627v-309z"/>
<glyph unicode="3" horiz-adv-x="1099" d="M71 582l1 -61q2 -100 16 -180t48 -152t87.5 -120t137.5 -76t194 -28q130 0 225 42t150.5 120t82 178t26.5 225q0 132 -43.5 246.5t-138.5 184.5q89 56 135.5 159.5t46.5 216.5q0 231 -127 365t-357 134q-231 0 -357.5 -133t-126.5 -366v-114h349v18v50q0 18 2.5 52.5 t7 56.5t14.5 49.5t24 43t36.5 27t50.5 11.5q42 0 70 -16.5t41 -46.5t18 -60.5t5 -70.5q0 -62 -16.5 -103t-51 -61.5t-76.5 -28t-103 -5.5v-350q124 3 185.5 -65.5t61.5 -193.5v-46q0 -14 -2.5 -46.5t-7 -50.5t-14.5 -43.5t-24 -39t-36 -23.5t-50 -10t-50.5 10.5t-36.5 28.5 t-24 42t-14.5 51t-7.5 55t-2 54.5t0 49.5v20h-349z"/>
<glyph unicode="4" horiz-adv-x="1117" d="M72 437h504v-437h345v437h168v280h-168v1084h-409l-440 -1082v-282zM380 717l195 540l1 -540h-196z"/>
<glyph unicode="5" horiz-adv-x="1143" d="M116 571q0 -105 12.5 -190t45 -164.5t85 -133.5t136.5 -86t195 -32q98 0 175 26.5t128.5 75.5t87 110.5t54.5 141t27 156t8 165.5q0 90 -11 166.5t-40.5 149.5t-75 124t-120 82t-170.5 31q-92 0 -188 -59l13 325h533v342h-857v-1034h295q22 55 59.5 97.5t86.5 42.5 q31 0 54.5 -12.5t38 -35.5t23.5 -47.5t13 -58t5 -56t1 -52.5q0 -143 -6 -194q-25 -191 -150 -191q-26 0 -45.5 10.5t-32 33t-20 47.5t-10.5 64.5t-4 73t0 82.5h-346z"/>
<glyph unicode="6" horiz-adv-x="1118" d="M87 550q0 -87 16.5 -168.5t54.5 -156.5t93 -131t137.5 -89.5t183.5 -33.5q103 0 186.5 35t138.5 93.5t91.5 139t52.5 168t16 183.5q0 93 -11 169.5t-39.5 148.5t-74.5 121t-119.5 78.5t-169.5 29.5q-114 0 -206 -62l-1 103q-3 352 136 352q32 0 55 -17.5t34.5 -41 t18 -61.5t7.5 -64t1 -64h339v32q0 111 -29 205.5t-84.5 165t-143 110.5t-198.5 40t-198 -39t-140 -102t-87 -150t-47 -173.5t-13 -182.5v-638zM438 529v233q53 84 134 84q32 0 56.5 -12t38.5 -35.5t23 -47t12.5 -59t4.5 -57t1 -55.5v-7q0 -29 -0.5 -47t-3 -53.5t-7 -59 t-14.5 -53t-24 -47t-36.5 -30t-50.5 -12.5q-34 0 -59.5 19t-39.5 46.5t-22 65t-10.5 67t-2.5 60.5z"/>
<glyph unicode="7" horiz-adv-x="843" d="M45 1496h438l-312 -1496h339l316 1622l-6 177h-775v-303z"/>
<glyph unicode="8" horiz-adv-x="1119" d="M86 528q0 -559 484 -559q132 0 227.5 40t150.5 116.5t80.5 175.5t25.5 227q0 68 -6 121.5t-22 110t-48 105t-80 87.5q131 132 131 385q0 230 -116 364.5t-343 134.5t-344.5 -134t-117.5 -365q0 -249 132 -385q-92 -74 -123 -177.5t-31 -246.5zM425 508q0 296 145 296 q144 0 144 -296q0 -29 -0.5 -45t-3 -47t-7.5 -50t-16 -43.5t-25.5 -38t-38 -23.5t-53.5 -10t-53 9.5t-38 23.5t-26 38t-16 43.5t-8 49.5t-3.5 47.5t-0.5 45.5zM455 1367q0 32 4 60.5t15 61.5t35.5 52.5t60.5 19.5q113 0 113 -194q0 -29 -0.5 -46t-2.5 -51.5t-6 -57 t-12 -51.5t-20 -46t-30.5 -29t-41.5 -12q-27 0 -47.5 14.5t-32.5 42t-19.5 54.5t-10.5 65.5t-4 61.5t-1 55z"/>
<glyph unicode="9" horiz-adv-x="1145" d="M91 1212q0 -547 423 -547q109 0 199 50l1 -45q0 -160 -12 -230q-28 -169 -126 -169q-29 0 -51 11t-35 33t-21.5 44t-11.5 54.5t-4 53.5t-1 52h-341v-30q3 -113 33 -206t85.5 -163.5t144 -109.5t202.5 -39q112 0 199 41t140 106t87 156.5t46.5 183t12.5 194.5v560 q0 93 -17 180.5t-55 168.5t-93 141.5t-137.5 96.5t-182.5 36q-103 0 -186 -35.5t-138 -95t-92 -141t-53 -169t-16 -182.5zM442 1182v46q0 30 0.5 47t3 53t7 59t14.5 53t23.5 47.5t35.5 30t50 12.5q42 0 71.5 -27t42 -71t17.5 -82.5t5 -78.5v-237q-23 -35 -59.5 -58 t-76.5 -23q-28 0 -50 11t-36 26t-24 42t-14.5 46.5t-7 54t-2.5 49.5z"/>
<glyph unicode=":" horiz-adv-x="518" d="M99 151h321v315h-321v-315zM99 897h321v316h-321v-316z"/>
<glyph unicode=";" horiz-adv-x="510" d="M85 148h110q0 -31 -1.5 -45t-10.5 -22.5t-18 -9t-36 -0.5h-15l40 -166q159 -24 214 86q39 78 41 278q0 35 -1 109v88h-323v-318zM87 897h321v316h-321v-316z"/>
<glyph unicode="&lt;" horiz-adv-x="865" d="M74 525l676 -472v292q-370 265 -444 319l444 315v293l-676 -473v-274z"/>
<glyph unicode="=" horiz-adv-x="762" d="M70 258h612v222h-612v-222zM70 583h612v223h-612v-223z"/>
<glyph unicode="&gt;" horiz-adv-x="865" d="M115 53l676 472v274l-676 473v-293l444 -315l-444 -319v-292z"/>
<glyph unicode="?" horiz-adv-x="974" d="M46 1408q0 -99 29 -210l314 60q-19 62 -19 124q0 68 28.5 113.5t84.5 45.5q61 0 93.5 -35t32.5 -104q0 -79 -30.5 -159.5t-82.5 -148.5t-111.5 -124.5t-125.5 -101.5v-388h334v280q166 96 259.5 262t93.5 360q0 218 -121 335.5t-342 117.5q-219 0 -328 -117.5 t-109 -309.5zM259 0h334v324h-334v-324z"/>
<glyph unicode="@" horiz-adv-x="1727" d="M83 791q0 -229 46.5 -397t147.5 -287t265 -178t395 -59q168 0 416 56l-108 226q-181 -58 -308 -58q-110 0 -197.5 22.5t-149 66.5t-105 103t-68.5 139.5t-36 169t-11 196.5q0 126 29.5 233t88.5 192t158 133t228 48q142 0 240.5 -44t153 -128.5t77.5 -189t23 -244.5 q0 -33 -3 -67t-12 -81t-32 -76.5t-56 -29.5q-14 0 -24 4t-16 15t-9.5 17t-4.5 24t-1 22v23v589h-287v-54q-42 63 -130 63q-74 0 -132 -36t-92.5 -91t-57.5 -127.5t-31 -138.5t-8 -131q0 -108 37 -201.5t117.5 -156.5t190.5 -63q44 0 85.5 26t90.5 91q50 -58 123 -87.5 t154 -29.5q99 0 175.5 42.5t121 115t66.5 158t22 180.5q0 253 -86.5 437.5t-263.5 287.5t-431 103q-184 0 -334 -60.5t-249.5 -170t-153.5 -262t-54 -335.5zM759 716q0 120 8 163q22 129 116 129q16 0 27 -11.5t13 -27.5v-404q-27 -28 -61 -28q-32 0 -54 17.5t-31.5 47.5 t-13.5 57t-4 57z"/>
<glyph unicode="A" d="M18 0h361l70 385h235l74 -385h359l-388 1800h-322zM474 609l95 668l91 -668h-186z"/>
<glyph unicode="B" horiz-adv-x="1140" d="M107 0h444q267 0 397 130t130 401q0 376 -321 454q140 47 206.5 128t66.5 222q0 114 -28.5 197.5t-76 134.5t-121 81.5t-150 41t-176.5 10.5h-371v-1800zM471 257v596h36q119 0 168.5 -78t49.5 -219q0 -68 -4.5 -112t-17.5 -82.5t-37.5 -59.5t-64 -33t-96.5 -12h-34z M471 1092v464h20h39q19 0 36.5 -2t32.5 -5t28.5 -10.5t24.5 -18t19.5 -26.5t14.5 -37t9 -49.5t3 -63.5q0 -57 -7 -99t-24.5 -78.5t-51.5 -55.5t-84 -19h-60z"/>
<glyph unicode="C" horiz-adv-x="1174" d="M84 601q0 -109 15.5 -200t53.5 -173.5t96.5 -139t149 -90t207.5 -33.5q114 0 202 34.5t143.5 91t91.5 138.5t50.5 169t16.5 190l1 152h-356v-185q0 -61 -5 -108.5t-19 -97t-46 -76.5t-79 -27q-158 0 -158 265v777q0 266 158 266q40 0 68.5 -20t43 -48.5t23 -74t10.5 -81 t2 -84.5v-166h358v155q0 107 -16.5 196t-54 165t-95.5 128t-143.5 81.5t-195.5 29.5q-522 0 -522 -638v-596z"/>
<glyph unicode="D" horiz-adv-x="1164" d="M107 0h372q111 0 196.5 13t149 37t108.5 65t73.5 88.5t45 116t22.5 140t6 167.5v590q0 161 -25.5 265t-92 178.5t-183 107t-296.5 32.5h-376v-1800zM471 255v1289h14q125 -1 178 -30t53 -118v-969q0 -41 -4 -68.5t-16.5 -47.5t-27.5 -30.5t-45.5 -16.5t-61 -7.5 t-82.5 -1.5h-8z"/>
<glyph unicode="E" horiz-adv-x="889" d="M107 0h751v250h-387v554h274v256h-274v490h387v250h-751v-1800z"/>
<glyph unicode="F" horiz-adv-x="879" d="M107 0h364v804h274v256h-274v490h387v250h-751v-1800z"/>
<glyph unicode="G" horiz-adv-x="1238" d="M84 563q0 -87 15 -169.5t50 -161.5t86.5 -137.5t131 -94t176.5 -35.5q90 0 175 44.5t131 116.5l46 -126h250v926h-570v-261h206v-144q0 -275 -166 -275q-167 0 -167 265v777q0 266 167 266q44 0 76 -19t49 -47t27 -71.5t12.5 -79t2.5 -82.5v-126h348v106q0 107 -17 196 t-55 165t-97 128t-146.5 81.5t-199.5 29.5q-531 0 -531 -638v-634z"/>
<glyph unicode="H" horiz-adv-x="1205" d="M107 0h364v803h261v-803h366v1800h-366v-738h-261v738h-364v-1800z"/>
<glyph unicode="I" horiz-adv-x="578" d="M107 0h364v1800h-364v-1800z"/>
<glyph unicode="J" horiz-adv-x="691" d="M0 -34h179q101 0 172.5 19.5t116.5 54.5t71 94.5t35.5 129t9.5 168.5v1368h-364v-1365q0 -132 -44 -173q-42 -40 -164 -40h-12v-256z"/>
<glyph unicode="K" horiz-adv-x="1187" d="M107 0h364v653l66 170l272 -823h378l-394 1063l367 737h-407l-282 -683v683h-364v-1800z"/>
<glyph unicode="L" horiz-adv-x="852" d="M107 0h722v250h-358v1550h-364v-1800z"/>
<glyph unicode="M" horiz-adv-x="1470" d="M107 0h269l8 1274l221 -1274h272q29 194 105 633t105 633l8 -1266h268v1800h-421l-207 -1200l-192 1200h-436v-1800z"/>
<glyph unicode="N" horiz-adv-x="1173" d="M107 0h313v999l394 -999h252v1801h-302v-942l-395 942h-262v-1801z"/>
<glyph unicode="O" horiz-adv-x="1221" d="M84 592q0 -108 16.5 -199t55 -171.5t97.5 -136t150 -88t207 -32.5q117 0 208 33t150.5 90.5t98 139.5t54.5 173.5t16 199.5v596q0 638 -527 638q-526 0 -526 -638v-605zM448 510v778q0 49 6.5 90.5t22.5 84t50 67t83 24.5q163 0 163 -266v-778q0 -265 -163 -265 q-162 0 -162 265z"/>
<glyph unicode="P" horiz-adv-x="1030" d="M107 0h364v770h2q101 1 178 15.5t143 50t108 94t65.5 148.5t23.5 212q0 248 -107 379t-342 131h-435v-1800zM471 1027v514h20q28 0 50.5 -4t38.5 -14.5t27.5 -20.5t18.5 -30t11.5 -34.5t6 -43t2 -46t0.5 -51.5q0 -43 -0.5 -64.5t-2.5 -54t-6 -48t-11.5 -36.5t-19 -30.5 t-28.5 -19.5t-39.5 -13.5t-52.5 -3.5h-15z"/>
<glyph unicode="Q" horiz-adv-x="1228" d="M84 592q0 -140 31 -253t93 -198t164 -131.5t236 -46.5q56 0 99 5q128 -202 400 -202v221q-146 0 -176 65q213 179 213 549v596q0 111 -16.5 204t-55 175t-98.5 138t-151.5 88.5t-208.5 32.5t-208.5 -32.5t-151.5 -88.5t-98.5 -138t-55 -175t-16.5 -204v-605zM448 511v777 q0 49 7 91t23.5 84t51.5 66.5t84 24.5q50 0 84.5 -24.5t51.5 -66t23.5 -84t6.5 -91.5v-777q0 -265 -166 -265t-166 265z"/>
<glyph unicode="R" horiz-adv-x="1134" d="M107 0h364v829h60l206 -829h377q-120 356 -282 870q64 28 111 70t72 85.5t39.5 100t18.5 100.5t4 100q0 129 -40 221.5t-117 147t-179.5 80t-237.5 25.5h-396v-1800zM471 1051v482h121q38 0 64.5 -26.5t38 -68t16 -75.5t4.5 -66t-5.5 -68t-19 -79t-43.5 -71t-72 -28h-104 z"/>
<glyph unicode="S" horiz-adv-x="1073" d="M57 515q5 -110 37 -206t91.5 -175t156.5 -125t222 -46q193 0 328 120.5t135 309.5q0 101 -23.5 188t-70.5 162t-100 134.5t-130 127.5q-22 20 -133 114q-74 62 -114 127t-40 154q0 64 30 111t90 47q34 0 58 -19.5t35.5 -52.5t16.5 -66t5 -69q0 -15 -1.5 -38.5t-1.5 -34.5 l376 52v30l1 13q0 192 -134 328t-325 136q-230 0 -369 -127.5t-139 -346.5q0 -75 17.5 -142t42 -114.5t68 -98.5t75.5 -81t86 -75l113 -96q213 -187 213 -376q0 -138 -108 -138q-36 0 -62.5 21.5t-41 53t-23 81t-10.5 91.5t-2 97z"/>
<glyph unicode="T" horiz-adv-x="921" d="M17 1528h264v-1528h364v1528h259v272h-887v-272z"/>
<glyph unicode="U" horiz-adv-x="1248" d="M99 669q0 -86 5 -156t19.5 -145t38.5 -132.5t64 -110t94 -86.5t131 -54t173 -20t173 20t131.5 54t94.5 86.5t64 110t38 132.5t19 145t5 156v1131h-364v-1120q0 -229 -12 -298q-18 -99 -80 -125q-28 -11 -69 -11q-40 0 -68 9t-45.5 38t-27.5 54t-14 87.5t-5 106t-1 139.5 v1120h-364v-1131z"/>
<glyph unicode="V" horiz-adv-x="1076" d="M28 1800l331 -1800h333l356 1800h-340l-176 -1091l-159 1091h-345z"/>
<glyph unicode="W" horiz-adv-x="1486" d="M32 1800l249 -1800h311l148 1178l151 -1178h311l252 1800h-311l-117 -1185l-151 1185h-267l-154 -1192l-112 1192h-310z"/>
<glyph unicode="X" horiz-adv-x="1103" d="M34 1800l293 -869l-291 -931h344l170 595l172 -595h343l-287 937l291 863h-338l-182 -538l-169 538h-346z"/>
<glyph unicode="Y" horiz-adv-x="1035" d="M3 1800l338 -1205v-595h352v595l339 1205h-333q-31 -130 -93 -395.5t-92 -395.5l-168 791h-343z"/>
<glyph unicode="Z" horiz-adv-x="998" d="M80 0h831v250h-477l477 1320v229h-776v-250h420l-475 -1321v-228z"/>
<glyph unicode="[" horiz-adv-x="779" d="M156 -64h547v158h-259v1655h259v158h-547v-1971z"/>
<glyph unicode="\" horiz-adv-x="629" d="M68 1843l197 -1843h289l-198 1843h-288z"/>
<glyph unicode="]" horiz-adv-x="728" d="M76 -64h512v1920h-512v-128h256v-1664h-256v-128z"/>
<glyph unicode="^" horiz-adv-x="962" d="M65 907h290l119 418l120 -418h290l-271 676h-277z"/>
<glyph unicode="_" horiz-adv-x="829" d="M6 0h806v223h-806v-223z"/>
<glyph unicode="`" horiz-adv-x="640" d="M76 1835l277 -442h205l-136 442h-346z"/>
<glyph unicode="a" horiz-adv-x="976" d="M58 291q0 -60 14.5 -114.5t45 -102t84.5 -75.5t126 -28q98 0 164 36.5t95 127.5l33 -135h308q-43 186 -43 347v620q0 150 -113 259t-263 109q-215 0 -328 -120.5t-113 -345.5h327v74q0 31 2 49.5t9 41.5t24.5 34.5t45.5 11.5q41 0 58 -34t17 -103v-110 q-68 -28 -113 -48.5t-102 -51t-93.5 -59t-75 -69.5t-60 -85.5t-35.5 -102.5t-14 -126zM386 322q0 161 165 294l1 -321q-18 -23 -27 -33t-29.5 -23.5t-41.5 -13.5q-37 0 -52.5 28.5t-15.5 68.5z"/>
<glyph unicode="b" horiz-adv-x="999" d="M95 0h337v98q40 -59 100 -93t127 -34q111 0 186 83.5t75 195.5v771q0 124 -78 219t-193 95q-63 0 -119.5 -32.5t-97.5 -85.5v583h-337v-1800zM432 306v696l6 8l8 10q2 2 8 9.5t9 11t9 10t10 9.5t10.5 7.5t11.5 7t11 4t12 1.5q56 0 56 -86v-675q0 -27 -2.5 -44.5 t-16 -33.5t-37.5 -16q-6 0 -12 2t-11.5 4t-11.5 7t-10.5 8t-10.5 10l-9 10l-9 12t-8 10t-7 10z"/>
<glyph unicode="c" horiz-adv-x="928" d="M78 334q0 -162 118 -262.5t283 -100.5q107 0 198 43t147 127.5t56 192.5v195h-331v-139q0 -46 -2 -71.5t-8.5 -49.5t-21 -34t-38.5 -10q-64 0 -64 110v646q0 99 64 99q43 0 56.5 -36.5t13.5 -114.5v-149h331v114q0 209 -98.5 325t-302.5 116q-203 0 -302 -116.5 t-99 -324.5v-560z"/>
<glyph unicode="d" horiz-adv-x="999" d="M79 250q0 -112 75 -195.5t186 -83.5q67 0 127 34t100 93v-98h337v1800h-337v-583q-41 53 -97.5 85.5t-119.5 32.5q-115 0 -193 -95t-78 -219v-771zM416 319v675q0 86 56 86q38 0 95 -75v-708q-52 -72 -95 -72q-24 0 -37.5 16t-16 33.5t-2.5 44.5z"/>
<glyph unicode="e" horiz-adv-x="940" d="M78 339q0 -162 118 -265t283 -103t283 102.5t118 265.5v147h-331v-143q0 -118 -70 -118q-64 0 -64 110v289h465v270q0 209 -98.5 325t-302.5 116q-203 0 -302 -116.5t-99 -324.5v-555zM415 801v180q0 99 64 99q67 0 67 -99v-180h-131z"/>
<glyph unicode="f" horiz-adv-x="647" d="M65 1080h76v-1080h337v1080h163v225h-163v61q0 62 18 85.5t60 23.5l88 -6v252q-117 14 -212 14q-62 0 -110 -16.5t-79 -48.5t-51.5 -69.5t-31 -89.5t-14.5 -98t-5 -106v-2h-76v-225z"/>
<glyph unicode="g" horiz-adv-x="965" d="M32 -106q0 -235 481 -235q76 0 138 8.5t122 31.5t100.5 60.5t65 100t24.5 145.5q0 50 -17.5 89.5t-59 67.5t-72.5 45.5t-98.5 32.5t-94.5 20t-99 15q-18 3 -26 4q-80 12 -119 24.5t-39 35.5q0 4 6 17.5t12 25.5l5 11q67 -15 108 -15q94 0 171.5 36t127 98t76 142 t26.5 169q0 152 -42 227q44 44 143 44l28 241h-42q-172 0 -245 -83q-78 83 -232 83q-103 0 -181.5 -41t-124.5 -111t-68.5 -154.5t-22.5 -180.5q0 -188 102 -374q-133 -169 -133 -226q0 -26 38 -54.5t79 -49.5q-61 -44 -99 -112.5t-38 -137.5zM299 -46q0 54 45 125h24 q31 -1 52.5 -3t57.5 -6t61 -12t50.5 -20t38.5 -31.5t13 -43.5q0 -68 -111 -68h-3h-6q-222 0 -222 59zM395 851q0 35 0.5 58.5t3 56t8 54t14 42t23 30.5t33.5 10q77 0 77 -238q0 -232 -82 -232q-77 0 -77 219z"/>
<glyph unicode="h" horiz-adv-x="1005" d="M94 0h337v1005q18 21 28 32t33 27t43 16q12 0 20.5 -4t13.5 -13t8 -17t3.5 -21.5t1 -22t0 -22t-0.5 -17.5v-963h337v1051q0 68 -26.5 132t-81 108t-123.5 44q-72 0 -139.5 -34t-116.5 -89v588h-337v-1800z"/>
<glyph unicode="i" horiz-adv-x="529" d="M96 0h337v1305h-337v-1305zM96 1419h337v315h-337v-315z"/>
<glyph unicode="j" horiz-adv-x="572" d="M-21 -40v-244q104 -27 179 -27q155 0 237.5 90t82.5 247v1279h-335v-1250q0 -111 -76 -111q-32 0 -88 16zM143 1419h335v315h-335v-315z"/>
<glyph unicode="k" horiz-adv-x="1001" d="M99 0h337v506l45 76l172 -582h349l-320 754l321 551h-361l-206 -453v948h-337v-1800z"/>
<glyph unicode="l" horiz-adv-x="529" d="M96 0h337v1800h-337v-1800z"/>
<glyph unicode="m" horiz-adv-x="1473" d="M94 0h337l-1 1005q57 75 95 75q46 0 46 -94v-986h337v1006q56 74 92 74q17 0 28 -9.5t15 -27.5t5 -29.5t1 -29.5v-984h337v1051q0 67 -27.5 131.5t-82.5 108.5t-124 44q-80 0 -151.5 -40.5t-120.5 -106.5q-28 63 -83 105t-120 42q-69 0 -134 -34t-112 -89v93h-337v-1305z "/>
<glyph unicode="n" horiz-adv-x="1005" d="M94 0h337v1012l7 8q6 7 8 9.5t9 10t11 10.5l10 9q7 6 12 8.5t11.5 6t13 5t12.5 1.5q56 0 56 -87v-993h337v1052q0 68 -26.5 131.5t-81 107t-123.5 43.5q-73 0 -140.5 -33t-115.5 -88v92h-337v-1305z"/>
<glyph unicode="o" horiz-adv-x="973" d="M78 339q0 -108 56.5 -193.5t148.5 -130t201 -44.5q169 0 290 102.5t121 265.5v555q0 209 -101 324.5t-310 115.5t-307.5 -115.5t-98.5 -324.5v-555zM415 335v646q0 99 69 99q77 0 77 -99v-646q0 -110 -77 -110q-24 0 -39 10t-21 29.5t-7.5 34t-1.5 36.5z"/>
<glyph unicode="p" horiz-adv-x="999" d="M95 -371h337v469q40 -59 100 -93t127 -34q111 0 186 83.5t75 195.5v771q0 124 -78 219t-193 95q-63 0 -119.5 -32.5t-97.5 -85.5v88h-337v-1676zM432 297v708q57 75 95 75q56 0 56 -86v-675q0 -27 -2.5 -44.5t-16 -33.5t-37.5 -16q-43 0 -95 72z"/>
<glyph unicode="q" horiz-adv-x="979" d="M82 255q0 -112 74.5 -198t184.5 -86q60 0 114 32.5t93 85.5v-460h337v1676h-337v-97q-37 59 -91.5 93t-115.5 34q-110 0 -184.5 -83.5t-74.5 -195.5v-801zM417 309v687q0 24 2 39.5t13 30t31 14.5q16 0 35.5 -15.5t27 -25t22.5 -30.5v-708q-11 -16 -16.5 -23.5t-18.5 -23 t-25.5 -22.5t-24.5 -7q-46 0 -46 84z"/>
<glyph unicode="r" horiz-adv-x="714" d="M94 0h335v876q0 79 35.5 121.5t104.5 42.5q19 0 111 -10l20 284q-62 10 -91 10q-103 0 -180 -125v106h-335v-1305z"/>
<glyph unicode="s" horiz-adv-x="874" d="M33 983q0 -110 61 -200t168 -183l55 -47q45 -38 63 -54t51.5 -49t47 -53.5t26 -49t12.5 -55.5q0 -74 -63 -74q-24 0 -45.5 14.5t-35 31.5t-28 48.5t-20.5 48t-16 46.5l-258 -92q43 -154 154 -249t264 -95q158 0 269.5 103t111.5 261q0 55 -19.5 110t-56 105t-73 89.5 t-86.5 84.5l-62 55q-85 71 -133.5 125.5t-48.5 98.5q0 32 19.5 57t54.5 25q26 0 50 -14.5t40.5 -33.5t34 -50.5t25.5 -51t20 -49.5l242 83q-20 71 -57 135.5t-87.5 116t-117.5 82.5t-140 31q-82 0 -156.5 -22.5t-134.5 -64.5t-95.5 -110.5t-35.5 -153.5z"/>
<glyph unicode="t" horiz-adv-x="668" d="M21 1080h96v-632q0 -55 2.5 -98t10 -93t21 -87.5t37 -73.5t56 -59.5t80 -37.5t106.5 -14q127 0 193 20l20 261q-40 -6 -98 -6q-51 0 -71 26.5t-20 80.5v713h162v225h-162v429h-337v-429h-96v-225zM429 0z"/>
<glyph unicode="u" horiz-adv-x="1006" d="M87 253q0 -107 64 -194.5t167 -87.5q70 0 138 40t119 102v-113h337v1305h-337v-1006q-60 -74 -105 -74q-46 0 -46 110v970h-337v-1052z"/>
<glyph unicode="v" horiz-adv-x="892" d="M11 1305l271 -1305h341l258 1305h-316l-109 -881l-129 881h-316z"/>
<glyph unicode="w" horiz-adv-x="1273" d="M27 1305l191 -1305h290l132 771l123 -771h290l193 1305h-260l-114 -821l-98 821h-254l-108 -805l-104 805h-281z"/>
<glyph unicode="x" horiz-adv-x="922" d="M33 1305l241 -617l-240 -688h332l94 410l96 -410h332l-238 688l239 617h-333q-17 -75 -49.5 -213.5t-45.5 -195.5l-95 409h-333z"/>
<glyph unicode="y" horiz-adv-x="872" d="M18 1305q8 -40 59.5 -264.5t103.5 -459.5t74 -356q15 -79 15 -108q0 -102 -41.5 -147.5t-141.5 -47.5v-233h43q70 0 124.5 6t110 24t95 47.5t70.5 80t46 118.5l285 1340h-309l-106 -728l-121 728h-307z"/>
<glyph unicode="z" horiz-adv-x="813" d="M57 0h707v244h-362l362 838v223h-651v-243h303l-359 -834v-228z"/>
<glyph unicode="{" horiz-adv-x="762" d="M70 778q28 0 50 -5.5t36 -14t23.5 -25.5t14 -30.5t6.5 -38.5t1.5 -40.5t-1 -46t-0.5 -45.5q0 -118 11 -204t42.5 -163.5t84.5 -125.5t139 -75.5t205 -27.5v222q-34 0 -61 6t-46 20.5t-33 29t-23 41t-15 47t-9 56.5t-4.5 58.5t-3 64.5t-2.5 65q-3 64 -11 111t-25.5 100.5 t-52.5 95t-86 69.5q53 34 90.5 97t55 140t24.5 144t7 136v52q0 17 1.5 44t4 39t7.5 31t12 27t17.5 19.5t24.5 16t33 9.5t42.5 6.5t52.5 1.5v222q-143 0 -230 -18.5t-146.5 -71.5t-82.5 -142.5t-23 -235.5q0 -8 1 -50.5t0.5 -68t-3.5 -69t-11.5 -71.5t-22.5 -57t-38 -43.5 t-56 -14.5v-287z"/>
<glyph unicode="|" horiz-adv-x="429" d="M134 -130h222v2102h-222v-2102z"/>
<glyph unicode="}" horiz-adv-x="762" d="M70 -64q119 0 205.5 27.5t139.5 75t84.5 125t42.5 163.5t11 205q0 15 -0.5 45.5t-1 46t1.5 40.5t6.5 38.5t14 30.5t23.5 25.5t35.5 14t49.5 5.5v287q-32 0 -56 14.5t-37.5 43.5t-22 57t-11.5 71.5t-3.5 69.5t0.5 68t1 50q0 118 -16 197.5t-48.5 133.5t-92 83.5t-136 41.5 t-190.5 12v-222q29 0 52.5 -1.5t42.5 -6.5t33 -9.5t24.5 -16t17.5 -19.5t12 -27t7.5 -31t4 -39t1.5 -44v-52q0 -68 7.5 -135.5t25 -144.5t55 -140.5t89.5 -96.5q-44 -24 -75.5 -60t-49.5 -72t-29.5 -86.5t-15.5 -89.5t-6 -94q-7 -155 -14 -196q-21 -122 -102 -153 q-34 -13 -80 -13v-222z"/>
<glyph unicode="~" horiz-adv-x="1028" d="M139 842h182q0 68 34 68q23 0 72.5 -22t108.5 -44t106 -22q79 0 133.5 44.5t78 112t22.5 150.5h-181q0 -69 -37 -69q-28 0 -77 22t-105.5 43.5t-102.5 21.5q-79 0 -133.5 -44t-78 -110.5t-22.5 -150.5z"/>
<glyph unicode="¡" horiz-adv-x="498" d="M76 1233h324v317h-324v-317zM131 0h269v1180h-269v-1180z"/>
<glyph unicode="¢" horiz-adv-x="965" d="M87 399q0 -152 104 -253t256 -114v-295h90v295q149 16 250.5 116.5t101.5 250.5v127h-332q0 -34 0.5 -58t1 -33t0.5 -14q0 -65 -15 -95t-56 -30q-64 0 -64 110v508q0 99 64 99q44 0 57.5 -37.5t12.5 -113.5l-1 -74h332v56q0 196 -86.5 309.5t-265.5 127.5v287h-90v-287 q-183 -12 -271.5 -126t-88.5 -311v-445z"/>
<glyph unicode="£" horiz-adv-x="1137" d="M84 0h945v284h-459v441h245v259h-245v220q0 348 71 348t71 -247h327q0 63 -3 111t-12.5 106t-26 100t-46.5 84t-71.5 68.5t-102 43t-136.5 16.5q-81 0 -146 -20t-110 -52.5t-78 -82.5t-52.5 -102t-31 -118.5t-15 -124.5t-3.5 -128v-222h-121v-259h121v-480l-121 -59v-186 z"/>
<glyph unicode="¤" horiz-adv-x="1054" d="M120 579l90 -90l86 86q95 -63 231 -63t231 63l86 -86l90 90l-87 86q64 99 64 232q0 132 -64 229l87 87l-90 90l-86 -86q-95 63 -231 63t-231 -63l-86 86l-90 -90l86 -86q-63 -97 -63 -230q0 -135 63 -232zM335 897q0 89 48.5 151t143.5 62t143.5 -62.5t48.5 -151.5 q0 -88 -49 -151t-143 -63q-88 0 -140 63.5t-52 151.5z"/>
<glyph unicode="¥" horiz-adv-x="1095" d="M51 1843q51 -189 150.5 -552t146.5 -535h-146v-196h195v-102h-195v-199h195v-259h287v259h194v199h-194v102h194v196h-150l299 1087h-294l-193 -901l-194 901h-295z"/>
<glyph unicode="¦" horiz-adv-x="441" d="M98 -15h234v665h-234v-665zM98 900h234v665h-234v-665z"/>
<glyph unicode="§" horiz-adv-x="1028" d="M101 348q42 -165 143.5 -265.5t263.5 -100.5q177 0 289.5 92t112.5 265q0 149 -149 278q149 95 149 290q0 69 -27.5 133t-78 117.5t-103.5 94t-122 82.5q-21 13 -65 36.5t-63 35.5q-58 37 -58 98q0 54 30.5 84.5t84.5 30.5q111 0 186 -196l220 73q-38 163 -141.5 264 t-264.5 101q-86 0 -158.5 -22.5t-127.5 -65.5t-86.5 -112t-31.5 -157q0 -136 174 -247q-86 -45 -130 -125.5t-44 -180.5q0 -42 10 -80.5t22.5 -66.5t40.5 -58.5t45 -47.5t57.5 -43t57 -36t61.5 -35q9 -5 14 -8q83 -46 123 -78q88 -71 88 -159q0 -54 -30.5 -84.5t-84.5 -30.5 q-34 0 -65.5 19t-54 51t-38.5 62.5t-28 64.5zM393 951q0 39 23 75t58 58l43 -35q106 -91 106 -142q0 -68 -82 -112q-17 12 -44 27q-48 29 -76 58t-28 71z"/>
<glyph unicode="¨" horiz-adv-x="927" d="M116 1492h303v308h-303v-308zM569 1492h304v308h-304v-308z"/>
<glyph unicode="©" horiz-adv-x="1619" d="M83 723q0 -148 55.5 -283.5t150.5 -235.5t228.5 -159.5t281.5 -59.5q198 0 363.5 101.5t259.5 271t94 365.5q0 197 -94 366.5t-259.5 270.5t-363.5 101q-148 0 -281.5 -59.5t-228.5 -159.5t-150.5 -236t-55.5 -283zM284 719q0 145 65 271.5t184.5 205.5t265.5 79 q110 0 207 -46.5t163.5 -123.5t105 -178t38.5 -208t-38.5 -208t-105 -178t-163.5 -123.5t-207 -46.5q-146 0 -265.5 79t-184.5 205.5t-65 271.5zM492 716q0 -48 0.5 -78.5t3.5 -77t8.5 -77t16.5 -69.5t26.5 -64.5t39.5 -52.5t54 -42.5t71 -25.5t91 -10q155 0 229 108t74 287 h-210v-28q0 -7 -1 -32.5t-3.5 -37.5t-6 -34t-10.5 -33.5t-16.5 -25t-24 -19.5t-31.5 -6q-41 0 -64 20.5t-37.5 95t-14.5 216.5q0 182 29 250t96 68q24 0 40.5 -16.5t24.5 -36t12 -52.5t4.5 -49t0.5 -43h214q0 79 -14.5 142.5t-47.5 117t-93 83t-143 29.5q-51 0 -93.5 -10 t-73.5 -25t-55.5 -42.5t-40 -52.5t-26.5 -65.5t-16.5 -70.5t-8.5 -79t-3.5 -79t-0.5 -83z"/>
<glyph unicode="ª" horiz-adv-x="906" d="M60 862q0 -85 62 -147t147 -62q107 0 177 96l13 -85h224q-12 50 -15 122t1 142t5 149t-1 147t-19 132t-47 109.5t-87.5 72.5t-137.5 27q-136 0 -211.5 -94t-77.5 -233h208q0 152 77 152q63 0 63 -125v-86q-153 -49 -211 -78q-168 -88 -170 -239zM285 908q0 21 12.5 42.5 t25.5 35.5t41.5 33.5t38 25t38.5 22.5v-164q-14 -28 -41 -47t-57 -19t-44 20t-14 51z"/>
<glyph unicode="«" horiz-adv-x="1054" d="M79 576l448 -512v320l-256 257l256 255v320l-448 -512v-128zM527 576l448 -512v320l-256 257l256 255v320l-448 -512v-128z"/>
<glyph unicode="¬" horiz-adv-x="829" d="M136 453h389v-194h158v417h-547v-223z"/>
<glyph unicode="­" horiz-adv-x="804" d="M142 433h541v255h-541v-255z"/>
<glyph unicode="®" horiz-adv-x="1619" d="M83 723q0 -148 55.5 -283.5t150.5 -235.5t228.5 -159.5t281.5 -59.5q198 0 363.5 101.5t259.5 271t94 365.5q0 197 -94 366.5t-259.5 270.5t-363.5 101q-148 0 -281.5 -59.5t-228.5 -159.5t-150.5 -236t-55.5 -283zM284 719q0 145 65 271.5t184.5 205.5t265.5 79 q110 0 207 -46.5t163.5 -123.5t105 -178t38.5 -208t-38.5 -208t-105 -178t-163.5 -123.5t-207 -46.5q-146 0 -265.5 79t-184.5 205.5t-65 271.5zM534 251h186v390h58l129 -390h201q-11 27 -53.5 127.5t-66.5 170.5t-36 133q126 76 126 236q0 292 -287 292h-257v-959z M720 766v296h57q111 0 111 -140q0 -92 -30 -124t-119 -32h-19z"/>
<glyph unicode="¯" horiz-adv-x="429" d="M-36 1457h507v193h-507v-193z"/>
<glyph unicode="°" horiz-adv-x="1095" d="M138 1459q0 -184 108.5 -294t293.5 -110q186 0 295 109.5t109 294.5q0 184 -109.5 293t-294.5 109q-184 0 -293 -108.5t-109 -293.5zM360 1459q0 86 47.5 143.5t132.5 57.5q86 0 133 -57.5t47 -144.5q0 -86 -47.5 -144.5t-132.5 -58.5q-84 0 -132 59t-48 145z"/>
<glyph unicode="±" horiz-adv-x="895" d="M137 0h610v223h-610v-223zM137 583h193v-194h224v194h193v223h-193v194h-224v-194h-193v-223z"/>
<glyph unicode="²" horiz-adv-x="696" d="M70 583h547v159h-310q14 18 71 88t90 115q149 197 149 300q0 128 -72.5 200.5t-200.5 72.5q-132 0 -203 -77.5t-71 -209.5h223v15v17q0 6 0.5 18t2 19.5t3.5 18t6 17t9 12.5t13 9t17 3t16.5 -2.5t12.5 -8t9 -11t6 -15t3.5 -15.5t2 -17t0.5 -16v-17v-13q0 -63 -88 -200 q-37 -57 -84.5 -120.5t-98 -126.5t-53.5 -67v-148z"/>
<glyph unicode="³" horiz-adv-x="829" d="M136 935q0 -133 70.5 -210t202.5 -77q129 0 201.5 72.5t72.5 200.5q0 140 -132 194q132 53 132 195q0 128 -72.5 200.5t-201.5 72.5q-132 0 -202.5 -77.5t-70.5 -209.5h222v14v18q0 5 0.5 18t2 20t4 18t6 17t9 12.5t13 9.5t16.5 3q18 0 29.5 -10t15.5 -29.5t5 -32 t1 -35.5v-9q0 -68 -28 -91.5t-102 -23.5v-158q73 0 101.5 -23.5t28.5 -92.5t-11 -91q-13 -24 -40 -24q-9 0 -16.5 3t-13 9t-9 12t-6 17t-4 18t-2 19.5t-0.5 17.5v18v15h-222z"/>
<glyph unicode="´" horiz-adv-x="638" d="M113 1393h204l277 442h-345z"/>
<glyph unicode="µ" horiz-adv-x="1083" d="M134 -179h335v173q84 36 152 119v-113h336v1305h-336l1 -1006l-28 -35q-10 -11 -34 -28t-44 -17q-47 0 -47 83q0 6 0.5 17.5t0.5 15.5v970h-336v-1484z"/>
<glyph unicode="¶" horiz-adv-x="1020" d="M23 1233q0 -158 104.5 -250t266.5 -96v-887h227v887h113v-887h209v1583h-493q-92 0 -166.5 -18.5t-134.5 -58t-93 -109t-33 -164.5z"/>
<glyph unicode="·" horiz-adv-x="520" d="M99 679h323v315h-323v-315z"/>
<glyph unicode="¸" horiz-adv-x="585" d="M132 -400v-161q42 0 69 0.5t78.5 4.5t87 11t79 21.5t70.5 35t45.5 53t18.5 73.5q0 129 -221 233v129h-171v-242q2 -1 17 -6t21.5 -8t23 -9.5t25.5 -11.5t23 -12.5t22 -15t16.5 -16t12.5 -18t4 -19.5q0 -11 -10.5 -19.5t-28.5 -12.5t-38 -7t-44.5 -3.5t-42 -0.5t-36 0.5 t-21.5 0.5z"/>
<glyph unicode="¹" horiz-adv-x="562" d="M69 1231h129v-583h223v935h-86q-91 -111 -266 -199v-153z"/>
<glyph unicode="º" horiz-adv-x="965" d="M5 430q0 -102 17.5 -179.5t58.5 -139.5t114.5 -94t178.5 -32q99 0 171.5 34.5t115 96.5t62.5 140.5t20 173.5v322q0 94 -20 172t-62.5 140t-115.5 97t-171 35q-105 0 -178.5 -32t-114.5 -94t-58.5 -139t-17.5 -179v-322zM249 410v44v17v239v17q0 33 0.5 51.5t3.5 51 t10.5 52t20 41t34.5 31.5t51 10q21 0 38.5 -5t29 -16.5t20.5 -22.5t14 -31t8.5 -33.5t4.5 -38t1.5 -36.5t0 -38t-0.5 -33v-239q0 -7 0.5 -33t0 -38t-1.5 -37t-4.5 -38t-8.5 -33.5t-14 -31.5t-20.5 -22.5t-29 -16.5t-38.5 -5q-25 0 -45 9t-32.5 21t-21 35t-12.5 39t-6.5 46.5 t-2.5 43.5z"/>
<glyph unicode="»" horiz-adv-x="1054" d="M79 64l448 512v128l-448 512v-320l256 -255l-256 -257v-320zM527 64l448 512v128l-448 512v-320l256 -255l-256 -257v-320z"/>
<glyph unicode="¼" horiz-adv-x="1695" d="M69 1231h129v-583h223v935h-86q-91 -111 -266 -199v-153zM424 0h179l578 1835h-180zM936 244h324v-259h222v259h130v158h-130v583h-195l-351 -593v-148zM1167 402l93 184v-184h-93z"/>
<glyph unicode="½" horiz-adv-x="1694" d="M69 1231h129v-583h223v935h-86q-91 -111 -266 -199v-153zM424 0h179l578 1835h-180zM1068 -15h547v159h-310q14 18 71 88t90 115q149 197 149 300q0 128 -72.5 200.5t-200.5 72.5q-132 0 -203 -77.5t-71 -209.5h223v15v17q0 6 0.5 18t2 19.5t3.5 18t6 17t9 12.5t13 9 t17 3t16.5 -2.5t12.5 -8t9 -11t6 -15t3.5 -15.5t2 -17t0.5 -16v-17v-13q0 -63 -88 -200q-37 -57 -84.5 -120.5t-98 -126.5t-53.5 -67v-148z"/>
<glyph unicode="¾" horiz-adv-x="1895" d="M136 935q0 -133 70.5 -210t202.5 -77q129 0 201.5 72.5t72.5 200.5q0 140 -132 194q132 53 132 195q0 128 -72.5 200.5t-201.5 72.5q-132 0 -202.5 -77.5t-70.5 -209.5h222v14v18q0 5 0.5 18t2 20t4 18t6 17t9 12.5t13 9.5t16.5 3q18 0 29.5 -10t15.5 -29.5t5 -32 t1 -35.5v-9q0 -68 -28 -91.5t-102 -23.5v-158q73 0 101.5 -23.5t28.5 -92.5t-11 -91q-13 -24 -40 -24q-9 0 -16.5 3t-13 9t-9 12t-6 17t-4 18t-2 19.5t-0.5 17.5v18v15h-222zM587 0h179l578 1835h-180zM1069 244h324v-259h222v259h130v158h-130v583h-195l-351 -593v-148z M1300 402l93 184v-184h-93z"/>
<glyph unicode="¿" horiz-adv-x="1182" d="M248 418q0 -218 121 -335.5t342 -117.5q219 0 328 117.5t109 309.5q0 99 -29 210l-314 -60q19 -62 19 -124q0 -68 -28.5 -113.5t-84.5 -45.5q-61 0 -93.5 35t-32.5 104q0 79 30.5 159.5t82.5 148.5t111.5 124.5t125.5 101.5v388h-334v-280q-166 -96 -259.5 -262 t-93.5 -360zM601 1476h334v324h-334v-324z"/>
<glyph unicode="À" d="M18 0h361l70 385h235l74 -385h359l-388 1800h-322zM190 2331l277 -442h205l-136 442h-346zM474 609l95 668l91 -668h-186z"/>
<glyph unicode="Á" d="M18 0h361l70 385h235l74 -385h359l-388 1800h-322zM451 1889h204l277 442h-345zM474 609l95 668l91 -668h-186z"/>
<glyph unicode="Â" d="M18 0h361l70 385h235l74 -385h359l-388 1800h-322zM221 1889h274l73 202l75 -202h275l-206 406h-290zM474 609l95 668l91 -668h-186z"/>
<glyph unicode="Ã" d="M18 0h361l70 385h235l74 -385h359l-388 1800h-322zM205 1926h167v14q0 2 1 13.5t4 14.5t8 9.5t14 8.5t22 2q47 0 150.5 -36.5t153.5 -36.5q156 0 156 298h-155q0 -16 -1 -23.5t-9.5 -15t-24.5 -7.5q-23 0 -125 29t-176 29q-47 0 -81 -17t-53.5 -44t-31.5 -68t-15.5 -80 t-3.5 -90zM474 609l95 668l91 -668h-186z"/>
<glyph unicode="Ä" d="M18 0h361l70 385h235l74 -385h359l-388 1800h-322zM187 1988h303v308h-303v-308zM474 609l95 668l91 -668h-186zM640 1988h304v308h-304v-308z"/>
<glyph unicode="Å" d="M18 0h361l70 385h235l74 -385h359l-388 1800h-322zM293 2159q0 -109 71.5 -174t181.5 -65t181.5 65t71.5 174t-71.5 174t-181.5 65t-181.5 -65t-71.5 -174zM465 2160q0 43 20.5 80t60.5 37q39 0 58.5 -38t19.5 -81t-19.5 -80t-58.5 -37q-41 0 -61 37t-20 82zM474 609 l95 668l91 -668h-186z"/>
<glyph unicode="Æ" horiz-adv-x="1609" d="M44 0h384l142 385h284v-385h724v250h-387v554h274v256h-274v490h387v250h-761zM643 609l211 574v-574h-211z"/>
<glyph unicode="Ç" horiz-adv-x="1174" d="M84 601q0 -109 15.5 -200t53.5 -173.5t96.5 -139t149 -90t207.5 -33.5q114 0 202 34.5t143.5 91t91.5 138.5t50.5 169t16.5 190l1 152h-356v-185q0 -61 -5 -108.5t-19 -97t-46 -76.5t-79 -27q-158 0 -158 265v777q0 266 158 266q40 0 68.5 -20t43 -48.5t23 -74t10.5 -81 t2 -84.5v-166h358v155q0 107 -16.5 196t-54 165t-95.5 128t-143.5 81.5t-195.5 29.5q-522 0 -522 -638v-596zM462 -400v-161q42 0 69 0.5t78.5 4.5t87 11t79 21.5t70.5 35t45.5 53t18.5 73.5q0 129 -221 233v129h-171v-242q2 -1 17 -6t21.5 -8t23 -9.5t25.5 -11.5t23 -12.5 t22 -15t16.5 -16t12.5 -18t4 -19.5q0 -11 -10.5 -19.5t-28.5 -12.5t-38 -7t-44.5 -3.5t-42 -0.5t-36 0.5t-21.5 0.5z"/>
<glyph unicode="È" horiz-adv-x="889" d="M92 2348l277 -442h205l-136 442h-346zM107 0h751v250h-387v554h274v256h-274v490h387v250h-751v-1800z"/>
<glyph unicode="É" horiz-adv-x="889" d="M107 0h751v250h-387v554h274v256h-274v490h387v250h-751v-1800zM353 1906h204l277 442h-345z"/>
<glyph unicode="Ê" horiz-adv-x="889" d="M107 0h751v250h-387v554h274v256h-274v490h387v250h-751v-1800zM123 1906h274l73 202l75 -202h275l-206 406h-290z"/>
<glyph unicode="Ë" horiz-adv-x="889" d="M89 2005h303v308h-303v-308zM107 0h751v250h-387v554h274v256h-274v490h387v250h-751v-1800zM542 2005h304v308h-304v-308z"/>
<glyph unicode="Ì" horiz-adv-x="578" d="M-86 2331l277 -442h205l-136 442h-346zM107 0h364v1800h-364v-1800z"/>
<glyph unicode="Í" horiz-adv-x="578" d="M107 0h364v1800h-364v-1800zM175 1889h204l277 442h-345z"/>
<glyph unicode="Î" horiz-adv-x="578" d="M-55 1889h274l73 202l75 -202h275l-206 406h-290zM107 0h364v1800h-364v-1800z"/>
<glyph unicode="Ï" horiz-adv-x="578" d="M-89 1988h303v308h-303v-308zM107 0h364v1800h-364v-1800zM364 1988h304v308h-304v-308z"/>
<glyph unicode="Ð" horiz-adv-x="1156" d="M15 809h82v-809h372q111 0 196.5 13t149 37t108.5 65t73.5 88.5t45 116t22.5 140t6 167.5v590q0 161 -25.5 265t-92 178.5t-183 107t-296.5 32.5h-376v-768h-82v-223zM461 255v554h124v223h-124v512h11q127 -1 180.5 -29.5t53.5 -118.5v-969q0 -41 -4 -68t-16 -47 t-27 -30.5t-44 -16.5t-59 -8t-80 -2h-15z"/>
<glyph unicode="Ñ" horiz-adv-x="1173" d="M107 0h313v999l394 -999h252v1801h-302v-942l-395 942h-262v-1801zM221 1926h167v14q0 2 1 13.5t4 14.5t8 9.5t14 8.5t22 2q47 0 150.5 -36.5t153.5 -36.5q156 0 156 298h-155q0 -16 -1 -23.5t-9.5 -15t-24.5 -7.5q-23 0 -125 29t-176 29q-47 0 -81 -17t-53.5 -44 t-31.5 -68t-15.5 -80t-3.5 -90z"/>
<glyph unicode="Ò" horiz-adv-x="1221" d="M84 592q0 -108 16.5 -199t55 -171.5t97.5 -136t150 -88t207 -32.5q117 0 208 33t150.5 90.5t98 139.5t54.5 173.5t16 199.5v596q0 638 -527 638q-526 0 -526 -638v-605zM233 2331l277 -442h205l-136 442h-346zM448 510v778q0 49 6.5 90.5t22.5 84t50 67t83 24.5 q163 0 163 -266v-778q0 -265 -163 -265q-162 0 -162 265z"/>
<glyph unicode="Ó" horiz-adv-x="1221" d="M84 592q0 -108 16.5 -199t55 -171.5t97.5 -136t150 -88t207 -32.5q117 0 208 33t150.5 90.5t98 139.5t54.5 173.5t16 199.5v596q0 638 -527 638q-526 0 -526 -638v-605zM448 510v778q0 49 6.5 90.5t22.5 84t50 67t83 24.5q163 0 163 -266v-778q0 -265 -163 -265 q-162 0 -162 265zM494 1889h204l277 442h-345z"/>
<glyph unicode="Ô" horiz-adv-x="1221" d="M84 592q0 -108 16.5 -199t55 -171.5t97.5 -136t150 -88t207 -32.5q117 0 208 33t150.5 90.5t98 139.5t54.5 173.5t16 199.5v596q0 638 -527 638q-526 0 -526 -638v-605zM264 1889h274l73 202l75 -202h275l-206 406h-290zM448 510v778q0 49 6.5 90.5t22.5 84t50 67 t83 24.5q163 0 163 -266v-778q0 -265 -163 -265q-162 0 -162 265z"/>
<glyph unicode="Õ" horiz-adv-x="1221" d="M84 592q0 -108 16.5 -199t55 -171.5t97.5 -136t150 -88t207 -32.5q117 0 208 33t150.5 90.5t98 139.5t54.5 173.5t16 199.5v596q0 638 -527 638q-526 0 -526 -638v-605zM272 1926h167v14q0 2 1 13.5t4 14.5t8 9.5t14 8.5t22 2q47 0 150.5 -36.5t153.5 -36.5 q156 0 156 298h-155q0 -16 -1 -23.5t-9.5 -15t-24.5 -7.5q-22 0 -125 29t-176 29q-47 0 -81 -17t-53.5 -44t-31.5 -68t-15.5 -80t-3.5 -90zM448 510v778q0 49 6.5 90.5t22.5 84t50 67t83 24.5q163 0 163 -266v-778q0 -265 -163 -265q-162 0 -162 265z"/>
<glyph unicode="Ö" horiz-adv-x="1221" d="M84 592q0 -108 16.5 -199t55 -171.5t97.5 -136t150 -88t207 -32.5q117 0 208 33t150.5 90.5t98 139.5t54.5 173.5t16 199.5v596q0 638 -527 638q-526 0 -526 -638v-605zM230 1988h303v308h-303v-308zM448 510v778q0 49 6.5 90.5t22.5 84t50 67t83 24.5q163 0 163 -266 v-778q0 -265 -163 -265q-162 0 -162 265zM683 1988h304v308h-304v-308z"/>
<glyph unicode="×" horiz-adv-x="829" d="M65 468l150 -150l194 195l195 -195l149 150q-65 63 -194 194l194 194l-149 151l-195 -195l-194 195l-150 -151l194 -194z"/>
<glyph unicode="Ø" horiz-adv-x="1221" d="M84 592q0 -426 250 -565l-76 -277l96 -20l71 260q84 -25 185 -25q117 0 208 33t150.5 90.5t98 139.5t54.5 173.5t16 199.5v596q0 413 -225 560l80 290l-97 20l-73 -266q-93 34 -212 34q-526 0 -526 -638v-605zM448 501v787q0 49 6.5 90.5t22.5 84t50 67t83 24.5t83 -24.5 t50 -67t22.5 -84t6.5 -90.5l1 -787q0 -265 -162 -265q-163 0 -163 265z"/>
<glyph unicode="Ù" horiz-adv-x="1248" d="M99 669q0 -86 5 -156t19.5 -145t38.5 -132.5t64 -110t94 -86.5t131 -54t173 -20t173 20t131.5 54t94.5 86.5t64 110t38 132.5t19 145t5 156v1131h-364v-1120q0 -229 -12 -298q-18 -99 -80 -125q-28 -11 -69 -11q-40 0 -68 9t-45.5 38t-27.5 54t-14 87.5t-5 106t-1 139.5 v1120h-364v-1131zM249 2331l277 -442h205l-136 442h-346z"/>
<glyph unicode="Ú" horiz-adv-x="1248" d="M99 669q0 -86 5 -156t19.5 -145t38.5 -132.5t64 -110t94 -86.5t131 -54t173 -20t173 20t131.5 54t94.5 86.5t64 110t38 132.5t19 145t5 156v1131h-364v-1120q0 -229 -12 -298q-18 -99 -80 -125q-28 -11 -69 -11q-40 0 -68 9t-45.5 38t-27.5 54t-14 87.5t-5 106t-1 139.5 v1120h-364v-1131zM510 1889h204l277 442h-345z"/>
<glyph unicode="Û" horiz-adv-x="1248" d="M99 669q0 -86 5 -156t19.5 -145t38.5 -132.5t64 -110t94 -86.5t131 -54t173 -20t173 20t131.5 54t94.5 86.5t64 110t38 132.5t19 145t5 156v1131h-364v-1120q0 -229 -12 -298q-18 -99 -80 -125q-28 -11 -69 -11q-40 0 -68 9t-45.5 38t-27.5 54t-14 87.5t-5 106t-1 139.5 v1120h-364v-1131zM280 1889h274l73 202l75 -202h275l-206 406h-290z"/>
<glyph unicode="Ü" horiz-adv-x="1248" d="M99 669q0 -86 5 -156t19.5 -145t38.5 -132.5t64 -110t94 -86.5t131 -54t173 -20t173 20t131.5 54t94.5 86.5t64 110t38 132.5t19 145t5 156v1131h-364v-1120q0 -229 -12 -298q-18 -99 -80 -125q-28 -11 -69 -11q-40 0 -68 9t-45.5 38t-27.5 54t-14 87.5t-5 106t-1 139.5 v1120h-364v-1131zM246 1988h303v308h-303v-308zM699 1988h304v308h-304v-308z"/>
<glyph unicode="Ý" horiz-adv-x="1035" d="M3 1800l338 -1205v-595h352v595l339 1205h-333q-31 -130 -93 -395.5t-92 -395.5l-168 791h-343zM398 1889h204l277 442h-345z"/>
<glyph unicode="Þ" horiz-adv-x="1020" d="M97 0h364v534h14q99 2 174 17t139.5 51t105.5 94.5t64 148t23 209.5q0 248 -107 379t-342 131h-72v236h-363v-1800zM461 791v514h20q28 0 50.5 -4t38.5 -14.5t27.5 -20.5t18.5 -30t11.5 -34.5t6 -43t2 -46t0.5 -51.5q0 -43 -0.5 -64.5t-2.5 -54t-6 -48t-11.5 -36.5 t-19 -30.5t-28.5 -19.5t-39.5 -13.5t-52.5 -3.5h-15z"/>
<glyph unicode="ß" horiz-adv-x="1193" d="M99 0h366v1363q0 32 1 52t4 49.5t10.5 48t20 36.5t33 27t47.5 9q25 0 43.5 -9.5t30 -28.5t19 -39t10.5 -50t4 -53.5t1 -55.5q0 -49 -8 -95t-25 -89.5t-50 -70t-77 -26.5h-1v-253h1q116 -1 176.5 -76.5t60.5 -203.5q0 -88 -9 -143t-34 -97.5t-72.5 -61t-122.5 -18.5v-250 q302 0 448 130.5t146 399.5q0 62 -12.5 121t-40.5 116t-68.5 104t-101 84t-133.5 57q255 97 255 372q0 231 -116.5 358t-344.5 127q-94 0 -171 -25t-130 -69t-89.5 -104.5t-53.5 -130t-17 -147.5v-1358z"/>
<glyph unicode="à" horiz-adv-x="976" d="M58 291q0 -60 14.5 -114.5t45 -102t84.5 -75.5t126 -28q98 0 164 36.5t95 127.5l33 -135h308q-43 186 -43 347v620q0 150 -113 259t-263 109q-215 0 -328 -120.5t-113 -345.5h327v74q0 31 2 49.5t9 41.5t24.5 34.5t45.5 11.5q41 0 58 -34t17 -103v-110 q-68 -28 -113 -48.5t-102 -51t-93.5 -59t-75 -69.5t-60 -85.5t-35.5 -102.5t-14 -126zM131 1836l277 -442h205l-136 442h-346zM386 322q0 161 165 294l1 -321q-18 -23 -27 -33t-29.5 -23.5t-41.5 -13.5q-37 0 -52.5 28.5t-15.5 68.5z"/>
<glyph unicode="á" horiz-adv-x="976" d="M58 291q0 -60 14.5 -114.5t45 -102t84.5 -75.5t126 -28q98 0 164 36.5t95 127.5l33 -135h308q-43 186 -43 347v620q0 150 -113 259t-263 109q-215 0 -328 -120.5t-113 -345.5h327v74q0 31 2 49.5t9 41.5t24.5 34.5t45.5 11.5q41 0 58 -34t17 -103v-110 q-68 -28 -113 -48.5t-102 -51t-93.5 -59t-75 -69.5t-60 -85.5t-35.5 -102.5t-14 -126zM386 322q0 161 165 294l1 -321q-18 -23 -27 -33t-29.5 -23.5t-41.5 -13.5q-37 0 -52.5 28.5t-15.5 68.5zM392 1394h204l277 442h-345z"/>
<glyph unicode="â" horiz-adv-x="976" d="M58 291q0 -60 14.5 -114.5t45 -102t84.5 -75.5t126 -28q98 0 164 36.5t95 127.5l33 -135h308q-43 186 -43 347v620q0 150 -113 259t-263 109q-215 0 -328 -120.5t-113 -345.5h327v74q0 31 2 49.5t9 41.5t24.5 34.5t45.5 11.5q41 0 58 -34t17 -103v-110 q-68 -28 -113 -48.5t-102 -51t-93.5 -59t-75 -69.5t-60 -85.5t-35.5 -102.5t-14 -126zM162 1394h274l73 202l75 -202h275l-206 406h-290zM386 322q0 161 165 294l1 -321q-18 -23 -27 -33t-29.5 -23.5t-41.5 -13.5q-37 0 -52.5 28.5t-15.5 68.5z"/>
<glyph unicode="ã" horiz-adv-x="976" d="M58 291q0 -60 14.5 -114.5t45 -102t84.5 -75.5t126 -28q98 0 164 36.5t95 127.5l33 -135h308q-43 186 -43 347v620q0 150 -113 259t-263 109q-215 0 -328 -120.5t-113 -345.5h327v74q0 31 2 49.5t9 41.5t24.5 34.5t45.5 11.5q41 0 58 -34t17 -103v-110 q-68 -28 -113 -48.5t-102 -51t-93.5 -59t-75 -69.5t-60 -85.5t-35.5 -102.5t-14 -126zM146 1431h167v15q0 1 1 12.5t4 14.5t8 9.5t14 8.5t22 2q47 0 150.5 -36.5t153.5 -36.5q156 0 156 298h-155q0 -16 -1 -23.5t-9.5 -15t-24.5 -7.5q-22 0 -125 29t-176 29q-47 0 -81 -17 t-53.5 -44t-31.5 -68t-15.5 -80t-3.5 -90zM386 322q0 161 165 294l1 -321q-18 -23 -27 -33t-29.5 -23.5t-41.5 -13.5q-37 0 -52.5 28.5t-15.5 68.5z"/>
<glyph unicode="ä" horiz-adv-x="976" d="M58 291q0 -60 14.5 -114.5t45 -102t84.5 -75.5t126 -28q98 0 164 36.5t95 127.5l33 -135h308q-43 186 -43 347v620q0 150 -113 259t-263 109q-215 0 -328 -120.5t-113 -345.5h327v74q0 31 2 49.5t9 41.5t24.5 34.5t45.5 11.5q41 0 58 -34t17 -103v-110 q-68 -28 -113 -48.5t-102 -51t-93.5 -59t-75 -69.5t-60 -85.5t-35.5 -102.5t-14 -126zM128 1493h303v308h-303v-308zM386 322q0 161 165 294l1 -321q-18 -23 -27 -33t-29.5 -23.5t-41.5 -13.5q-37 0 -52.5 28.5t-15.5 68.5zM581 1493h304v308h-304v-308z"/>
<glyph unicode="å" horiz-adv-x="976" d="M58 291q0 -60 14.5 -114.5t45 -102t84.5 -75.5t126 -28q98 0 164 36.5t95 127.5l33 -135h308q-43 186 -43 347v620q0 150 -113 259t-263 109q-215 0 -328 -120.5t-113 -345.5h327v74q0 31 2 49.5t9 41.5t24.5 34.5t45.5 11.5q41 0 58 -34t17 -103v-110 q-68 -28 -113 -48.5t-102 -51t-93.5 -59t-75 -69.5t-60 -85.5t-35.5 -102.5t-14 -126zM234 1664q0 -109 71.5 -174t181.5 -65t181.5 65t71.5 174t-71.5 174t-181.5 65t-181.5 -65t-71.5 -174zM386 322q0 161 165 294l1 -321q-18 -23 -27 -33t-29.5 -23.5t-41.5 -13.5 q-37 0 -52.5 28.5t-15.5 68.5zM406 1665q0 43 20.5 80t60.5 37q39 0 58.5 -38t19.5 -81t-19.5 -80t-58.5 -37q-41 0 -61 37t-20 82z"/>
<glyph unicode="æ" horiz-adv-x="1427" d="M63 291q0 -103 47 -177.5t120 -108.5t161 -34t178 47t134 127q23 -76 101 -125t168 -49h16q165 9 268 106.5t103 261.5v147h-334q0 -9 1.5 -44t1.5 -58q0 -148 -70 -148q-64 0 -64 110v309q148 25 212 46q262 85 262 297q0 57 -29.5 116.5t-79 108.5t-124 80.5 t-157.5 31.5q-74 0 -144.5 -28t-115.5 -74q-35 43 -92 71.5t-112 30.5q-4 0 -14 0.5t-14 0.5q-195 0 -304 -124.5t-109 -342.5h327q0 10 -1.5 37.5t-1.5 43.5q0 120 72 120q87 0 87 -189v-135q-71 -17 -117 -30t-103.5 -34t-93 -43t-73.5 -55.5t-58.5 -74t-34 -95.5 t-13.5 -123zM366 354q0 35 6.5 62t26.5 58.5t64.5 60t111.5 51.5q6 -147 6 -165q0 -82 -30.5 -139t-91.5 -57q-45 0 -69 39.5t-24 89.5zM894 804v160q0 37 24 75.5t60 38.5q58 0 86.5 -32t28.5 -78q0 -35 -20.5 -65t-50 -47.5t-58.5 -29.5t-50 -17z"/>
<glyph unicode="ç" horiz-adv-x="928" d="M78 334q0 -162 118 -262.5t283 -100.5q107 0 198 43t147 127.5t56 192.5v195h-331v-139q0 -46 -2 -71.5t-8.5 -49.5t-21 -34t-38.5 -10q-64 0 -64 110v646q0 99 64 99q43 0 56.5 -36.5t13.5 -114.5v-149h331v114q0 209 -98.5 325t-302.5 116q-203 0 -302 -116.5 t-99 -324.5v-560zM333 -400v-161q42 0 69 0.5t78.5 4.5t87 11t79 21.5t70.5 35t45.5 53t18.5 73.5q0 129 -221 233v129h-171v-242q2 -1 17 -6t21.5 -8t23 -9.5t25.5 -11.5t23 -12.5t22 -15t16.5 -16t12.5 -18t4 -19.5q0 -11 -10.5 -19.5t-28.5 -12.5t-38 -7t-44.5 -3.5 t-42 -0.5t-36 0.5t-21.5 0.5z"/>
<glyph unicode="è" horiz-adv-x="940" d="M78 339q0 -162 118 -265t283 -103t283 102.5t118 265.5v147h-331v-143q0 -118 -70 -118q-64 0 -64 110v289h465v270q0 209 -98.5 325t-302.5 116q-203 0 -302 -116.5t-99 -324.5v-555zM105 1836l277 -442h205l-136 442h-346zM415 801v180q0 99 64 99q67 0 67 -99v-180 h-131z"/>
<glyph unicode="é" horiz-adv-x="940" d="M78 339q0 -162 118 -265t283 -103t283 102.5t118 265.5v147h-331v-143q0 -118 -70 -118q-64 0 -64 110v289h465v270q0 209 -98.5 325t-302.5 116q-203 0 -302 -116.5t-99 -324.5v-555zM366 1394h204l277 442h-345zM415 801v180q0 99 64 99q67 0 67 -99v-180h-131z"/>
<glyph unicode="ê" horiz-adv-x="940" d="M78 339q0 -162 118 -265t283 -103t283 102.5t118 265.5v147h-331v-143q0 -118 -70 -118q-64 0 -64 110v289h465v270q0 209 -98.5 325t-302.5 116q-203 0 -302 -116.5t-99 -324.5v-555zM136 1394h274l73 202l75 -202h275l-206 406h-290zM415 801v180q0 99 64 99 q67 0 67 -99v-180h-131z"/>
<glyph unicode="ë" horiz-adv-x="940" d="M78 339q0 -162 118 -265t283 -103t283 102.5t118 265.5v147h-331v-143q0 -118 -70 -118q-64 0 -64 110v289h465v270q0 209 -98.5 325t-302.5 116q-203 0 -302 -116.5t-99 -324.5v-555zM102 1493h303v308h-303v-308zM415 801v180q0 99 64 99q67 0 67 -99v-180h-131z M555 1493h304v308h-304v-308z"/>
<glyph unicode="ì" horiz-adv-x="532" d="M43 1835l277 -442h205l-136 442h-346zM124 0h337v1305h-337v-1305z"/>
<glyph unicode="í" horiz-adv-x="532" d="M124 0h337v1305h-337v-1305zM204 1393h204l277 442h-345z"/>
<glyph unicode="î" horiz-adv-x="532" d="M-51 1392h274l73 202l75 -202h275l-206 406h-290zM124 0h337v1305h-337v-1305z"/>
<glyph unicode="ï" horiz-adv-x="532" d="M-83 1491h303v308h-303v-308zM124 0h337v1305h-337v-1305zM370 1491h304v308h-304v-308z"/>
<glyph unicode="ð" horiz-adv-x="988" d="M87 341q0 -163 116 -266.5t280 -103.5q107 0 199.5 45t150 131t57.5 194l-1 847q0 192 -49 325l134 68l-66 140l-143 -73q-150 187 -501 187l-48 -265q190 0 260 -69l-155 -79l66 -140l154 78q12 -68 12 -212q-74 58 -173 58q-117 0 -205 -86t-88 -228v-551zM422 340v528 q0 36 19 55t46 19t46.5 -18t19.5 -50l-1 -534q0 -104 -69 -104q-20 0 -33.5 9.5t-19 27t-7 32t-1.5 35.5z"/>
<glyph unicode="ñ" horiz-adv-x="1011" d="M96 0h337v1012l7 8q6 7 8 9.5t9 10t11 10.5l10 9q7 6 12 8.5t11.5 6t13 5t12.5 1.5q56 0 56 -87v-993h337v1052q0 68 -26.5 131.5t-81 107t-123.5 43.5q-73 0 -140.5 -33t-115.5 -88v92h-337v-1305zM135 1443h167v15q0 1 1 12.5t4 14.5t8 9.5t14 8.5t22 2 q47 0 150.5 -36.5t153.5 -36.5q156 0 156 298h-155q0 -16 -1 -23.5t-9.5 -15t-24.5 -7.5q-23 0 -125 29t-176 29q-47 0 -81 -17t-53.5 -44t-31.5 -68t-15.5 -80t-3.5 -90z"/>
<glyph unicode="ò" horiz-adv-x="973" d="M78 339q0 -108 56.5 -193.5t148.5 -130t201 -44.5q169 0 290 102.5t121 265.5v555q0 209 -101 324.5t-310 115.5t-307.5 -115.5t-98.5 -324.5v-555zM120 1849l277 -442h205l-136 442h-346zM415 335v646q0 99 69 99q77 0 77 -99v-646q0 -110 -77 -110q-24 0 -39 10 t-21 29.5t-7.5 34t-1.5 36.5z"/>
<glyph unicode="ó" horiz-adv-x="973" d="M78 339q0 -108 56.5 -193.5t148.5 -130t201 -44.5q169 0 290 102.5t121 265.5v555q0 209 -101 324.5t-310 115.5t-307.5 -115.5t-98.5 -324.5v-555zM381 1407h204l277 442h-345zM415 335v646q0 99 69 99q77 0 77 -99v-646q0 -110 -77 -110q-24 0 -39 10t-21 29.5t-7.5 34 t-1.5 36.5z"/>
<glyph unicode="ô" horiz-adv-x="973" d="M78 339q0 -108 56.5 -193.5t148.5 -130t201 -44.5q169 0 290 102.5t121 265.5v555q0 209 -101 324.5t-310 115.5t-307.5 -115.5t-98.5 -324.5v-555zM151 1407h274l73 202l75 -202h275l-206 406h-290zM415 335v646q0 99 69 99q77 0 77 -99v-646q0 -110 -77 -110 q-24 0 -39 10t-21 29.5t-7.5 34t-1.5 36.5z"/>
<glyph unicode="õ" horiz-adv-x="973" d="M78 339q0 -108 56.5 -193.5t148.5 -130t201 -44.5q169 0 290 102.5t121 265.5v555q0 209 -101 324.5t-310 115.5t-307.5 -115.5t-98.5 -324.5v-555zM135 1444h167v14q0 2 1 13.5t4 14.5t8 9.5t14 8.5t22 2q47 0 150.5 -36.5t153.5 -36.5q156 0 156 298h-155 q0 -16 -1 -23.5t-9.5 -15t-24.5 -7.5q-23 0 -125 29t-176 29q-47 0 -81 -17t-53.5 -44t-31.5 -68t-15.5 -80t-3.5 -90zM415 335v646q0 99 69 99q77 0 77 -99v-646q0 -110 -77 -110q-24 0 -39 10t-21 29.5t-7.5 34t-1.5 36.5z"/>
<glyph unicode="ö" horiz-adv-x="973" d="M78 339q0 -108 56.5 -193.5t148.5 -130t201 -44.5q169 0 290 102.5t121 265.5v555q0 209 -101 324.5t-310 115.5t-307.5 -115.5t-98.5 -324.5v-555zM117 1506h303v308h-303v-308zM415 335v646q0 99 69 99q77 0 77 -99v-646q0 -110 -77 -110q-24 0 -39 10t-21 29.5 t-7.5 34t-1.5 36.5zM570 1506h304v308h-304v-308z"/>
<glyph unicode="÷" horiz-adv-x="696" d="M6 583h676v223h-676v-223zM200 236h287v287h-287v-287zM200 890h287v287h-287v-287z"/>
<glyph unicode="ø" horiz-adv-x="983" d="M83 339q0 -106 53.5 -188.5t144.5 -129.5l-73 -254l76 -20l70 245q66 -20 135 -20q169 0 290 102t121 265v555q0 281 -175 384l77 266l-77 20l-73 -253q-72 23 -163 23q-209 0 -307.5 -115.5t-98.5 -324.5v-555zM420 346v618q0 99 69 99q77 0 77 -99v-618 q0 -110 -77 -110q-24 0 -39 10t-21 29.5t-7.5 34t-1.5 36.5z"/>
<glyph unicode="ù" horiz-adv-x="1005" d="M87 253q0 -107 64 -194.5t167 -87.5q70 0 138 40t119 102v-113h337v1305h-337v-1006q-60 -74 -105 -74q-46 0 -46 110v970h-337v-1052zM116 1835l277 -442h205l-136 442h-346z"/>
<glyph unicode="ú" horiz-adv-x="1005" d="M87 253q0 -107 64 -194.5t167 -87.5q70 0 138 40t119 102v-113h337v1305h-337v-1006q-60 -74 -105 -74q-46 0 -46 110v970h-337v-1052zM377 1393h204l277 442h-345z"/>
<glyph unicode="û" horiz-adv-x="1005" d="M87 253q0 -107 64 -194.5t167 -87.5q70 0 138 40t119 102v-113h337v1305h-337v-1006q-60 -74 -105 -74q-46 0 -46 110v970h-337v-1052zM147 1393h274l73 202l75 -202h275l-206 406h-290z"/>
<glyph unicode="ü" horiz-adv-x="1005" d="M87 253q0 -107 64 -194.5t167 -87.5q70 0 138 40t119 102v-113h337v1305h-337v-1006q-60 -74 -105 -74q-46 0 -46 110v970h-337v-1052zM113 1492h303v308h-303v-308zM566 1492h304v308h-304v-308z"/>
<glyph unicode="ý" horiz-adv-x="872" d="M18 1305q8 -40 59.5 -264.5t103.5 -459.5t74 -356q15 -79 15 -108q0 -102 -41.5 -147.5t-141.5 -47.5v-233h43q70 0 124.5 6t110 24t95 47.5t70.5 80t46 118.5l285 1340h-309l-106 -728l-121 728h-307zM316 1393h204l277 442h-345z"/>
<glyph unicode="þ" horiz-adv-x="988" d="M99 -371h337v469q37 -59 91.5 -93t115.5 -34q110 0 184.5 83.5t74.5 195.5v801q0 112 -74.5 198t-184.5 86q-60 0 -114 -32.5t-93 -85.5v583h-337v-2171zM436 297v708q0 1 5 8t7 9.5t7 10t8 11t8.5 10t9.5 9.5t9.5 7.5t10 7t10 4t10.5 1.5q46 0 46 -86v-687 q0 -27 -2 -44.5t-13 -33.5t-31 -16q-34 0 -82 76q-2 3 -3 5z"/>
<glyph unicode="ÿ" horiz-adv-x="872" d="M18 1305q8 -40 59.5 -264.5t103.5 -459.5t74 -356q15 -79 15 -108q0 -102 -41.5 -147.5t-141.5 -47.5v-233h43q70 0 124.5 6t110 24t95 47.5t70.5 80t46 118.5l285 1340h-309l-106 -728l-121 728h-307zM52 1492h303v308h-303v-308zM505 1492h304v308h-304v-308z"/>
<glyph unicode="Œ" horiz-adv-x="1555" d="M84 609q0 -138 27 -245t86.5 -190.5t163.5 -128t249 -44.5l914 -1v250h-387v554h274v256h-274v490h387v250l-914 -1q-117 0 -208.5 -32.5t-150.5 -87.5t-97 -135t-54 -169t-16 -195v-571zM448 518v753q0 49 6.5 90.5t22.5 84t50 67t83 24.5h163v-1284h-163 q-162 0 -162 265z"/>
<glyph unicode="œ" horiz-adv-x="1436" d="M83 339q0 -163 113 -266t273 -103q143 0 262 87q112 -87 246 -87q161 0 276 103t115 266v147h-334q0 -9 1.5 -44t1.5 -58q0 -148 -70 -148q-64 0 -64 110v278h465v270q0 209 -93.5 324.5t-287.5 115.5q-152 0 -256 -79q-98 79 -242 79q-209 0 -307.5 -115.5t-98.5 -324.5 v-555zM420 346v618q0 99 69 99q77 0 77 -99v-625q-2 -103 -77 -103q-24 0 -39 10t-21 29.5t-7.5 34t-1.5 36.5zM903 801v163q0 99 64 99q67 0 67 -99v-163h-131z"/>
<glyph unicode="Ÿ" horiz-adv-x="1035" d="M3 1800l338 -1205v-595h352v595l339 1205h-333q-31 -130 -93 -395.5t-92 -395.5l-168 791h-343zM139 1957h303v308h-303v-308zM592 1957h304v308h-304v-308z"/>
<glyph unicode="ˆ" horiz-adv-x="894" d="M107 1393h274l73 202l75 -202h275l-206 406h-290z"/>
<glyph unicode="˜" horiz-adv-x="900" d="M121 1430h167v14q0 2 1 13.5t4 14.5t8 9.5t14 8.5t22 2q47 0 150.5 -36.5t153.5 -36.5q156 0 156 298h-155q0 -16 -1 -23.5t-9.5 -15t-24.5 -7.5q-23 0 -125 29t-176 29q-47 0 -81 -17t-53.5 -44t-31.5 -68t-15.5 -80t-3.5 -90z"/>
<glyph unicode=" " horiz-adv-x="1199"/>
<glyph unicode=" " horiz-adv-x="2398"/>
<glyph unicode=" " horiz-adv-x="1199"/>
<glyph unicode=" " horiz-adv-x="2398"/>
<glyph unicode=" " horiz-adv-x="799"/>
<glyph unicode=" " horiz-adv-x="599"/>
<glyph unicode=" " horiz-adv-x="399"/>
<glyph unicode=" " horiz-adv-x="399"/>
<glyph unicode=" " horiz-adv-x="299"/>
<glyph unicode=" " horiz-adv-x="479"/>
<glyph unicode=" " horiz-adv-x="133"/>
<glyph unicode="‐" horiz-adv-x="429" d="M4 453h417v223h-417v-223z"/>
<glyph unicode="‑" horiz-adv-x="429" d="M4 453h417v223h-417v-223z"/>
<glyph unicode="‒" horiz-adv-x="429" d="M4 453h417v223h-417v-223z"/>
<glyph unicode="–" horiz-adv-x="528" d="M4 453h517v223h-517v-223z"/>
<glyph unicode="—" horiz-adv-x="827" d="M4 453h817v223h-817v-223z"/>
<glyph unicode="‘" horiz-adv-x="562" d="M123 1451q1 -38 3 -90.5t2 -79.5h297v297h-128q1 33 25 54t52.5 27.5t61.5 5.5l-83 169q-52 0 -91.5 -16t-64 -41.5t-40.5 -66t-23 -78t-9.5 -90.5t-1.5 -91z"/>
<glyph unicode="’" horiz-adv-x="562" d="M115 1450l84 -169q52 0 91.5 16t64 41.5t40.5 66t23 78t9.5 90.5t1.5 91t-3 90.5t-2 79.5h-296v-297h128q-3 -49 -44.5 -68.5t-96.5 -18.5z"/>
<glyph unicode="‚" horiz-adv-x="429" d="M57 103l70 -424h163l71 424h-304z"/>
<glyph unicode="“" horiz-adv-x="962" d="M126 1452q1 -38 3 -91t2 -80h297v297h-128q2 34 25.5 54.5t52 27t62.5 5.5l-83 169q-52 0 -91.5 -16t-64 -41t-41 -66t-23.5 -78.5t-9.5 -90t-1.5 -90.5zM511 1452q1 -38 3 -91t2 -80h297v297h-128q3 48 44 68t95 19l-82 169q-52 0 -91.5 -16t-64 -41t-41 -66 t-23.5 -78.5t-9.5 -90t-1.5 -90.5z"/>
<glyph unicode="”" horiz-adv-x="962" d="M119 1450l84 -169q52 0 91.5 16t64 41.5t40.5 66t23 78t9.5 90.5t1.5 91t-3 90.5t-2 79.5h-297v-297h128q-1 -34 -25.5 -55t-53 -27t-61.5 -5zM503 1450l84 -169q52 0 91.5 16t64 41t41 66t23.5 78.5t9.5 90t1.5 90.5t-3 91t-2 80h-297v-297h128q-3 -49 -44.5 -68.5 t-96.5 -18.5z"/>
<glyph unicode="„" horiz-adv-x="762" d="M60 104l70 -424h163l71 424h-304zM383 104l71 -424h162l72 424h-305z"/>
<glyph unicode="•" horiz-adv-x="990" d="M121 718q0 -92 31.5 -166.5t85 -121t119 -71t137.5 -24.5t138 24.5t119.5 71t85.5 121t32 166.5q0 93 -32 168.5t-85.5 122t-119.5 71.5t-138 25q-71 0 -137 -25t-119 -71.5t-85 -122t-32 -168.5z"/>
<glyph unicode="…" horiz-adv-x="1566" d="M99 0h325v317h-325v-317zM621 0h325v317h-325v-317zM1143 0h325v317h-325v-317z"/>
<glyph unicode=" " horiz-adv-x="479"/>
<glyph unicode="‹" horiz-adv-x="618" d="M79 576l448 -512v320l-256 257l256 255v320l-448 -512v-128z"/>
<glyph unicode="›" horiz-adv-x="600" d="M79 64l448 512v128l-448 512v-320l256 -255l-256 -257v-320z"/>
<glyph unicode=" " horiz-adv-x="599"/>
<glyph unicode="€" horiz-adv-x="1040" d="M7 514h70v-8q5 -119 27 -209.5t70.5 -166.5t135.5 -116.5t211 -40.5q104 0 183 34.5t125.5 89t75.5 135t39.5 160t10.5 176.5v8h-278v-6q0 -334 -151 -334q-31 0 -55.5 10t-40.5 23.5t-28 38.5t-18.5 44.5t-11 53t-5.5 51.5t-3 52v5h196v196h-199v127h199v197h-199v6 q1 126 14 175q31 110 144 110q38 0 66.5 -21.5t43.5 -51.5t24.5 -72.5t12 -74.5t2.5 -67v-7h282v6q-1 93 -13.5 170t-43.5 148.5t-79 120.5t-124.5 78t-175.5 29t-174 -29.5t-122 -77.5t-77.5 -120t-43.5 -146.5t-18 -168.5v-7h-72v-197h69v-127h-69v-196z"/>
<glyph unicode="™" horiz-adv-x="2234" d="M167 1364h163v-678h170v678h164v154h-497v-154zM756 686h158v555l137 -555h103l137 555v-555h160v832h-242l-107 -453l-104 453h-242v-832z"/>
<glyph unicode="◼" horiz-adv-x="1305" d="M0 0v1305h1305v-1305h-1305z"/>
<glyph unicode="ﬁ" horiz-adv-x="1197" d="M65 1080h76v-1080h337v1080h287v-1080h337v1305h-624v61q0 62 18 85.5t60 23.5l88 -6v252q-117 14 -212 14q-71 0 -123.5 -23t-83 -59t-49.5 -91t-25.5 -107.5t-8.5 -120.5q0 -5 -0.5 -14.5t-0.5 -14.5h-76v-225zM765 1419h337v315h-337v-315z"/>
<glyph unicode="ﬂ" horiz-adv-x="1189" d="M65 1080h76v-1080h337v1080h163v225h-163v61q0 62 18 85.5t60 23.5q55 0 200 -5v-1470h337v1709q-98 4 -240 11.5t-228.5 11t-152.5 3.5q-80 0 -139.5 -23t-94.5 -59t-56.5 -91t-29.5 -107.5t-10 -120.5q0 -5 -0.5 -14.5t-0.5 -14.5h-76v-225z"/>
<glyph unicode="ﬃ" horiz-adv-x="1839" d="M65 1080h76v-1080h337v1080h282v-1080h337v1080h310v-1080h337v1305h-647v61q0 62 18 85.5t60 23.5l88 -6v252q-117 14 -212 14q-71 0 -123.5 -23t-83 -59t-49.5 -91t-25.5 -107.5t-8.5 -120.5q0 -5 -0.5 -14.5t-0.5 -14.5h-282v61q0 62 18 85.5t60 23.5l88 -6v252 q-117 14 -212 14q-71 0 -123.5 -23t-83 -59t-49.5 -91t-25.5 -107.5t-8.5 -120.5q0 -5 -0.5 -14.5t-0.5 -14.5h-76v-225zM1407 1419h337v315h-337v-315z"/>
<glyph unicode="ﬄ" horiz-adv-x="1849" d="M65 1080h76v-1080h337v1080h323v-1080h337v1080h163v225h-163v61q0 62 32 85.5t106 23.5q13 0 65 -2t75 -2v-1471h337v1698q-449 37 -601 37q-85 0 -148 -23t-100 -59t-60 -91t-31.5 -107.5t-10.5 -120.5q0 -5 -0.5 -14.5t-0.5 -14.5h-323v61q0 62 18 85.5t60 23.5l88 -6 v252q-117 14 -212 14q-71 0 -123.5 -23t-83 -59t-49.5 -91t-25.5 -107.5t-8.5 -120.5q0 -5 -0.5 -14.5t-0.5 -14.5h-76v-225z"/>
<hkern u1="A" u2="Q" k="25"/>
<hkern u1="D" u2="Ý" k="36"/>
<hkern u1="D" u2="Å" k="32"/>
<hkern u1="D" u2="Ä" k="32"/>
<hkern u1="D" u2="Ã" k="32"/>
<hkern u1="D" u2="Â" k="32"/>
<hkern u1="D" u2="Á" k="32"/>
<hkern u1="D" u2="À" k="32"/>
<hkern u1="D" u2="Y" k="36"/>
<hkern u1="D" u2="W" k="29"/>
<hkern u1="D" u2="V" k="20"/>
<hkern u1="D" u2="A" k="32"/>
<hkern u1="D" u2="." k="30"/>
<hkern u1="D" u2="," k="30"/>
<hkern u1="F" u2="s" k="22"/>
<hkern u1="F" u2="." k="173"/>
<hkern u1="F" u2="," k="144"/>
<hkern u1="L" u2="”" k="60"/>
<hkern u1="L" u2="’" k="60"/>
<hkern u1="T" u2="C" k="52"/>
<hkern u1="Y" u2="o" k="85"/>
<hkern u1="b" u2="ÿ" k="12"/>
<hkern u1="b" u2="ý" k="12"/>
<hkern u1="b" u2="y" k="12"/>
<hkern u1="b" u2="v" k="14"/>
<hkern u1="b" u2="b" k="17"/>
<hkern u1="c" u2="c" k="19"/>
<hkern u1="d" u2="d" k="25"/>
<hkern u1="e" u2="x" k="26"/>
<hkern u1="f" u2="f" k="77"/>
<hkern u1="g" u2="d" k="14"/>
<hkern u1="h" u2="ÿ" k="9"/>
<hkern u1="h" u2="ý" k="9"/>
<hkern u1="h" u2="y" k="9"/>
<hkern u1="m" u2="ÿ" k="22"/>
<hkern u1="m" u2="ý" k="22"/>
<hkern u1="m" u2="y" k="22"/>
<hkern u1="p" u2="ÿ" k="20"/>
<hkern u1="p" u2="ý" k="20"/>
<hkern u1="p" u2="y" k="20"/>
<hkern u1="r" u2="q" k="42"/>
<hkern u1="r" u2="d" k="35"/>
<hkern u1="r" u2="c" k="36"/>
<hkern u1="v" u2="ó" k="22"/>
<hkern u1="w" u2="ô" k="11"/>
<hkern u1="x" u2="ö" k="37"/>
<hkern u1="x" u2="õ" k="37"/>
<hkern u1="x" u2="ô" k="37"/>
<hkern u1="x" u2="ó" k="37"/>
<hkern u1="x" u2="ò" k="37"/>
<hkern u1="x" u2="o" k="37"/>
<hkern u1="À" u2="Q" k="25"/>
<hkern u1="Á" u2="Q" k="25"/>
<hkern u1="Â" u2="Q" k="25"/>
<hkern u1="Ã" u2="Q" k="25"/>
<hkern u1="Ä" u2="Q" k="25"/>
<hkern u1="Å" u2="Q" k="25"/>
<hkern u1="Ý" u2="o" k="85"/>
<hkern u1="è" u2="x" k="26"/>
<hkern u1="é" u2="x" k="26"/>
<hkern u1="ê" u2="x" k="26"/>
<hkern u1="ë" u2="x" k="26"/>
<hkern g1="A,Agrave,Aacute,Acircumflex,Atilde,Adieresis,Aring" g2="C,G,O,Q,Ccedilla,Ograve,Oacute,Ocircumflex,Otilde,Odieresis,Oslash,OE" k="30"/>
<hkern g1="A,Agrave,Aacute,Acircumflex,Atilde,Adieresis,Aring" g2="S" k="27"/>
<hkern g1="A,Agrave,Aacute,Acircumflex,Atilde,Adieresis,Aring" g2="T" k="129"/>
<hkern g1="A,Agrave,Aacute,Acircumflex,Atilde,Adieresis,Aring" g2="U,Ugrave,Uacute,Ucircumflex,Udieresis" k="8"/>
<hkern g1="A,Agrave,Aacute,Acircumflex,Atilde,Adieresis,Aring" g2="V" k="97"/>
<hkern g1="A,Agrave,Aacute,Acircumflex,Atilde,Adieresis,Aring" g2="W" k="91"/>
<hkern g1="A,Agrave,Aacute,Acircumflex,Atilde,Adieresis,Aring" g2="Y,Yacute" k="100"/>
<hkern g1="A,Agrave,Aacute,Acircumflex,Atilde,Adieresis,Aring" g2="p" k="7"/>
<hkern g1="A,Agrave,Aacute,Acircumflex,Atilde,Adieresis,Aring" g2="quotedblright" k="95"/>
<hkern g1="A,Agrave,Aacute,Acircumflex,Atilde,Adieresis,Aring" g2="quoteright" k="95"/>
<hkern g1="A,Agrave,Aacute,Acircumflex,Atilde,Adieresis,Aring" g2="u,ugrave,uacute,ucircumflex,udieresis" k="12"/>
<hkern g1="A,Agrave,Aacute,Acircumflex,Atilde,Adieresis,Aring" g2="v" k="70"/>
<hkern g1="A,Agrave,Aacute,Acircumflex,Atilde,Adieresis,Aring" g2="w" k="35"/>
<hkern g1="A,Agrave,Aacute,Acircumflex,Atilde,Adieresis,Aring" g2="y,yacute,ydieresis" k="30"/>
<hkern g1="B" g2="A,Agrave,Aacute,Acircumflex,Atilde,Adieresis,Aring" k="31"/>
<hkern g1="B" g2="U,Ugrave,Uacute,Ucircumflex,Udieresis" k="22"/>
<hkern g1="B" g2="comma" k="25"/>
<hkern g1="B" g2="period" k="25"/>
<hkern g1="C" g2="A,Agrave,Aacute,Acircumflex,Atilde,Adieresis,Aring" k="8"/>
<hkern g1="C" g2="Y,Yacute" k="50"/>
<hkern g1="Ccedilla" g2="A,Agrave,Aacute,Acircumflex,Atilde,Adieresis,Aring" k="8"/>
<hkern g1="Ccedilla" g2="Y,Yacute" k="50"/>
<hkern g1="D,O,Q,Eth,Ograve,Oacute,Ocircumflex,Otilde,Odieresis,Oslash" g2="A,Agrave,Aacute,Acircumflex,Atilde,Adieresis,Aring" k="23"/>
<hkern g1="D,O,Q,Eth,Ograve,Oacute,Ocircumflex,Otilde,Odieresis,Oslash" g2="T" k="33"/>
<hkern g1="D,O,Q,Eth,Ograve,Oacute,Ocircumflex,Otilde,Odieresis,Oslash" g2="V" k="17"/>
<hkern g1="D,O,Q,Eth,Ograve,Oacute,Ocircumflex,Otilde,Odieresis,Oslash" g2="W" k="30"/>
<hkern g1="D,O,Q,Eth,Ograve,Oacute,Ocircumflex,Otilde,Odieresis,Oslash" g2="X" k="50"/>
<hkern g1="D,O,Q,Eth,Ograve,Oacute,Ocircumflex,Otilde,Odieresis,Oslash" g2="Y,Yacute" k="36"/>
<hkern g1="F" g2="A,Agrave,Aacute,Acircumflex,Atilde,Adieresis,Aring" k="105"/>
<hkern g1="F" g2="a,agrave,aacute,acircumflex,atilde,adieresis,aring,ae" k="33"/>
<hkern g1="F" g2="c,d,e,o,q,ccedilla,egrave,eacute,ecircumflex,edieresis,eth,ograve,oacute,ocircumflex,otilde,odieresis,oslash,oe" k="37"/>
<hkern g1="F" g2="u,ugrave,uacute,ucircumflex,udieresis" k="25"/>
<hkern g1="F" g2="y,yacute,ydieresis" k="23"/>
<hkern g1="J" g2="A,Agrave,Aacute,Acircumflex,Atilde,Adieresis,Aring" k="9"/>
<hkern g1="K" g2="A,Agrave,Aacute,Acircumflex,Atilde,Adieresis,Aring" k="20"/>
<hkern g1="K" g2="C,G,O,Q,Ccedilla,Ograve,Oacute,Ocircumflex,Otilde,Odieresis,Oslash,OE" k="50"/>
<hkern g1="K" g2="c,d,e,o,q,ccedilla,egrave,eacute,ecircumflex,edieresis,eth,ograve,oacute,ocircumflex,otilde,odieresis,oslash,oe" k="18"/>
<hkern g1="K" g2="u,ugrave,uacute,ucircumflex,udieresis" k="22"/>
<hkern g1="K" g2="y,yacute,ydieresis" k="40"/>
<hkern g1="L" g2="C,G,O,Q,Ccedilla,Ograve,Oacute,Ocircumflex,Otilde,Odieresis,Oslash,OE" k="40"/>
<hkern g1="L" g2="T" k="105"/>
<hkern g1="L" g2="V" k="106"/>
<hkern g1="L" g2="W" k="110"/>
<hkern g1="L" g2="Y,Yacute" k="84"/>
<hkern g1="L" g2="y,yacute,ydieresis" k="55"/>
<hkern g1="P" g2="A,Agrave,Aacute,Acircumflex,Atilde,Adieresis,Aring" k="122"/>
<hkern g1="P" g2="a,agrave,aacute,acircumflex,atilde,adieresis,aring,ae" k="11"/>
<hkern g1="P" g2="c,d,e,o,q,ccedilla,egrave,eacute,ecircumflex,edieresis,eth,ograve,oacute,ocircumflex,otilde,odieresis,oslash,oe" k="28"/>
<hkern g1="P" g2="comma" k="100"/>
<hkern g1="P" g2="period" k="100"/>
<hkern g1="R" g2="C,G,O,Q,Ccedilla,Ograve,Oacute,Ocircumflex,Otilde,Odieresis,Oslash,OE" k="1"/>
<hkern g1="R" g2="T" k="26"/>
<hkern g1="R" g2="U,Ugrave,Uacute,Ucircumflex,Udieresis" k="12"/>
<hkern g1="R" g2="V" k="15"/>
<hkern g1="R" g2="W" k="5"/>
<hkern g1="R" g2="Y,Yacute" k="24"/>
<hkern g1="S" g2="A,Agrave,Aacute,Acircumflex,Atilde,Adieresis,Aring" k="27"/>
<hkern g1="S" g2="T" k="39"/>
<hkern g1="S" g2="V" k="11"/>
<hkern g1="S" g2="period" k="10"/>
<hkern g1="T" g2="A,Agrave,Aacute,Acircumflex,Atilde,Adieresis,Aring" k="85"/>
<hkern g1="T" g2="C,G,O,Q,Ccedilla,Ograve,Oacute,Ocircumflex,Otilde,Odieresis,Oslash,OE" k="18"/>
<hkern g1="T" g2="a,agrave,aacute,acircumflex,atilde,adieresis,aring,ae" k="68"/>
<hkern g1="T" g2="c,d,e,o,q,ccedilla,egrave,eacute,ecircumflex,edieresis,eth,ograve,oacute,ocircumflex,otilde,odieresis,oslash,oe" k="73"/>
<hkern g1="T" g2="r" k="10"/>
<hkern g1="T" g2="s" k="21"/>
<hkern g1="T" g2="u,ugrave,uacute,ucircumflex,udieresis" k="15"/>
<hkern g1="T" g2="w" k="20"/>
<hkern g1="T" g2="y,yacute,ydieresis" k="15"/>
<hkern g1="U,Ugrave,Uacute,Ucircumflex,Udieresis" g2="A,Agrave,Aacute,Acircumflex,Atilde,Adieresis,Aring" k="22"/>
<hkern g1="V" g2="A,Agrave,Aacute,Acircumflex,Atilde,Adieresis,Aring" k="111"/>
<hkern g1="V" g2="C,G,O,Q,Ccedilla,Ograve,Oacute,Ocircumflex,Otilde,Odieresis,Oslash,OE" k="20"/>
<hkern g1="V" g2="a,agrave,aacute,acircumflex,atilde,adieresis,aring,ae" k="44"/>
<hkern g1="V" g2="c,d,e,o,q,ccedilla,egrave,eacute,ecircumflex,edieresis,eth,ograve,oacute,ocircumflex,otilde,odieresis,oslash,oe" k="50"/>
<hkern g1="V" g2="s" k="18"/>
<hkern g1="V" g2="u,ugrave,uacute,ucircumflex,udieresis" k="33"/>
<hkern g1="W" g2="A,Agrave,Aacute,Acircumflex,Atilde,Adieresis,Aring" k="103"/>
<hkern g1="W" g2="C,G,O,Q,Ccedilla,Ograve,Oacute,Ocircumflex,Otilde,Odieresis,Oslash,OE" k="32"/>
<hkern g1="W" g2="a,agrave,aacute,acircumflex,atilde,adieresis,aring,ae" k="37"/>
<hkern g1="W" g2="c,d,e,o,q,ccedilla,egrave,eacute,ecircumflex,edieresis,eth,ograve,oacute,ocircumflex,otilde,odieresis,oslash,oe" k="26"/>
<hkern g1="W" g2="u,ugrave,uacute,ucircumflex,udieresis" k="25"/>
<hkern g1="W" g2="y,yacute,ydieresis" k="15"/>
<hkern g1="X" g2="C,G,O,Q,Ccedilla,Ograve,Oacute,Ocircumflex,Otilde,Odieresis,Oslash,OE" k="55"/>
<hkern g1="Y,Yacute" g2="A,Agrave,Aacute,Acircumflex,Atilde,Adieresis,Aring" k="90"/>
<hkern g1="Y,Yacute" g2="C,G,O,Q,Ccedilla,Ograve,Oacute,Ocircumflex,Otilde,Odieresis,Oslash,OE" k="25"/>
<hkern g1="Y,Yacute" g2="a,agrave,aacute,acircumflex,atilde,adieresis,aring,ae" k="50"/>
<hkern g1="Y,Yacute" g2="c,d,e,o,q,ccedilla,egrave,eacute,ecircumflex,edieresis,eth,ograve,oacute,ocircumflex,otilde,odieresis,oslash,oe" k="72"/>
<hkern g1="Y,Yacute" g2="g" k="48"/>
<hkern g1="Y,Yacute" g2="s" k="48"/>
<hkern g1="Y,Yacute" g2="semicolon" k="10"/>
<hkern g1="Y,Yacute" g2="u,ugrave,uacute,ucircumflex,udieresis" k="40"/>
<hkern g1="a" g2="v" k="12"/>
<hkern g1="a" g2="w" k="10"/>
<hkern g1="a" g2="y,yacute,ydieresis" k="13"/>
<hkern g1="aacute" g2="v" k="12"/>
<hkern g1="aacute" g2="w" k="10"/>
<hkern g1="aacute" g2="y,yacute,ydieresis" k="22"/>
<hkern g1="acircumflex" g2="v" k="12"/>
<hkern g1="acircumflex" g2="w" k="10"/>
<hkern g1="acircumflex" g2="y,yacute,ydieresis" k="22"/>
<hkern g1="adieresis" g2="v" k="12"/>
<hkern g1="adieresis" g2="w" k="10"/>
<hkern g1="adieresis" g2="y,yacute,ydieresis" k="22"/>
<hkern g1="agrave" g2="v" k="12"/>
<hkern g1="agrave" g2="w" k="10"/>
<hkern g1="agrave" g2="y,yacute,ydieresis" k="22"/>
<hkern g1="aring" g2="v" k="12"/>
<hkern g1="aring" g2="w" k="10"/>
<hkern g1="aring" g2="y,yacute,ydieresis" k="22"/>
<hkern g1="atilde" g2="v" k="12"/>
<hkern g1="atilde" g2="w" k="10"/>
<hkern g1="atilde" g2="y,yacute,ydieresis" k="22"/>
<hkern g1="b,o,p,ograve,oacute,ocircumflex,otilde,odieresis,oslash,thorn" g2="a,agrave,aacute,acircumflex,atilde,adieresis,aring,ae" k="16"/>
<hkern g1="b,o,p,ograve,oacute,ocircumflex,otilde,odieresis,oslash,thorn" g2="v" k="18"/>
<hkern g1="b,o,p,ograve,oacute,ocircumflex,otilde,odieresis,oslash,thorn" g2="w" k="28"/>
<hkern g1="b,o,p,ograve,oacute,ocircumflex,otilde,odieresis,oslash,thorn" g2="x" k="44"/>
<hkern g1="b,o,p,ograve,oacute,ocircumflex,otilde,odieresis,oslash,thorn" g2="y,yacute,ydieresis" k="26"/>
<hkern g1="c" g2="y,yacute,ydieresis" k="9"/>
<hkern g1="ccedilla" g2="y,yacute,ydieresis" k="9"/>
<hkern g1="d" g2="y,yacute,ydieresis" k="11"/>
<hkern g1="e" g2="a,agrave,aacute,acircumflex,atilde,adieresis,aring,ae" k="14"/>
<hkern g1="e" g2="v" k="7"/>
<hkern g1="e" g2="w" k="7"/>
<hkern g1="e" g2="y,yacute,ydieresis" k="13"/>
<hkern g1="eacute" g2="v" k="7"/>
<hkern g1="eacute" g2="w" k="7"/>
<hkern g1="eacute" g2="y,yacute,ydieresis" k="13"/>
<hkern g1="ecircumflex" g2="v" k="7"/>
<hkern g1="ecircumflex" g2="w" k="7"/>
<hkern g1="ecircumflex" g2="y,yacute,ydieresis" k="13"/>
<hkern g1="edieresis" g2="v" k="7"/>
<hkern g1="edieresis" g2="w" k="7"/>
<hkern g1="edieresis" g2="y,yacute,ydieresis" k="13"/>
<hkern g1="egrave" g2="v" k="7"/>
<hkern g1="egrave" g2="w" k="7"/>
<hkern g1="egrave" g2="y,yacute,ydieresis" k="13"/>
<hkern g1="f" g2="a,agrave,aacute,acircumflex,atilde,adieresis,aring,ae" k="24"/>
<hkern g1="f" g2="c,d,e,o,q,ccedilla,egrave,eacute,ecircumflex,edieresis,eth,ograve,oacute,ocircumflex,otilde,odieresis,oslash,oe" k="23"/>
<hkern g1="g" g2="a,agrave,aacute,acircumflex,atilde,adieresis,aring,ae" k="9"/>
<hkern g1="g" g2="c,d,e,o,q,ccedilla,egrave,eacute,ecircumflex,edieresis,eth,ograve,oacute,ocircumflex,otilde,odieresis,oslash,oe" k="20"/>
<hkern g1="g" g2="u,ugrave,uacute,ucircumflex,udieresis" k="15"/>
<hkern g1="h,m,n,ntilde" g2="v" k="12"/>
<hkern g1="h,m,n,ntilde" g2="y,yacute,ydieresis" k="12"/>
<hkern g1="k" g2="c,d,e,o,q,ccedilla,egrave,eacute,ecircumflex,edieresis,eth,ograve,oacute,ocircumflex,otilde,odieresis,oslash,oe" k="48"/>
<hkern g1="k" g2="g" k="29"/>
<hkern g1="quotedblleft" g2="A,Agrave,Aacute,Acircumflex,Atilde,Adieresis,Aring" k="170"/>
<hkern g1="quoteleft" g2="A,Agrave,Aacute,Acircumflex,Atilde,Adieresis,Aring" k="170"/>
<hkern g1="r" g2="a,agrave,aacute,acircumflex,atilde,adieresis,aring,ae" k="24"/>
<hkern g1="r" g2="c,d,e,o,q,ccedilla,egrave,eacute,ecircumflex,edieresis,eth,ograve,oacute,ocircumflex,otilde,odieresis,oslash,oe" k="49"/>
<hkern g1="r" g2="g" k="47"/>
<hkern g1="t" g2="a,agrave,aacute,acircumflex,atilde,adieresis,aring,ae" k="7"/>
<hkern g1="t" g2="c,d,e,o,q,ccedilla,egrave,eacute,ecircumflex,edieresis,eth,ograve,oacute,ocircumflex,otilde,odieresis,oslash,oe" k="11"/>
<hkern g1="v" g2="a,agrave,aacute,acircumflex,atilde,adieresis,aring,ae" k="19"/>
<hkern g1="v" g2="c,d,e,o,q,ccedilla,egrave,eacute,ecircumflex,edieresis,eth,ograve,oacute,ocircumflex,otilde,odieresis,oslash,oe" k="19"/>
<hkern g1="w" g2="a,agrave,aacute,acircumflex,atilde,adieresis,aring,ae" k="14"/>
<hkern g1="w" g2="c,d,e,o,q,ccedilla,egrave,eacute,ecircumflex,edieresis,eth,ograve,oacute,ocircumflex,otilde,odieresis,oslash,oe" k="13"/>
<hkern g1="x" g2="c,d,e,o,q,ccedilla,egrave,eacute,ecircumflex,edieresis,eth,ograve,oacute,ocircumflex,otilde,odieresis,oslash,oe" k="36"/>
<hkern g1="y,yacute,ydieresis" g2="a,agrave,aacute,acircumflex,atilde,adieresis,aring,ae" k="13"/>
<hkern g1="y,yacute,ydieresis" g2="c,d,e,o,q,ccedilla,egrave,eacute,ecircumflex,edieresis,eth,ograve,oacute,ocircumflex,otilde,odieresis,oslash,oe" k="26"/>
<hkern g1="y,yacute,ydieresis" g2="period" k="70"/>
<hkern g1="z" g2="c,d,e,o,q,ccedilla,egrave,eacute,ecircumflex,edieresis,eth,ograve,oacute,ocircumflex,otilde,odieresis,oslash,oe" k="13"/>
</font>
</defs></svg>